<?xml version="1.0" standalone="no"?>
<!DOCTYPE svg PUBLIC "-//W3C//DTD SVG 1.1//EN" "http://www.w3.org/Graphics/SVG/1.1/DTD/svg11.dtd" >
<svg>
<metadata>
Created by FontForge 20090622 at Mon Jun 13 14:01:23 2016
 By deploy user
Copyright &#194;&#169; 1988, 1990, 1993, 2002 Adobe Systems Incorporated.  All Rights Reserved. &#194;&#169; 1981, 2002 Heidelberger Druckmaschinen AG. All rights reserved.
</metadata>
<defs>
<font id="HelveticaNeueLTStd-Bd" horiz-adv-x="556" >
  <font-face 
    font-family="HelveticaNeueLT Std"
    font-weight="700"
    font-stretch="normal"
    units-per-em="1000"
    panose-1="2 11 8 4 2 2 2 2 2 4"
    ascent="714"
    descent="-286"
    x-height="517"
    cap-height="714"
    bbox="-166 -218 1078 975"
    underline-thickness="50"
    underline-position="-50"
    unicode-range="U+0020-U+FB02"
  />
<missing-glyph horiz-adv-x="500" 
d="M0 0v700h500v-700h-500zM250 395l170 255h-340zM280 350l170 -255v510zM80 50h340l-170 255zM50 605v-510l170 255z" />
    <glyph glyph-name="fi" unicode="fi" horiz-adv-x="611" 
d="M553 714v-117h-142v117h142zM411 0v517h142v-517h-142zM85 0v422h-85v95h85v40q0 71 44.5 114t128.5 43q14 0 41 -2t34 -2v-106q-26 3 -52 3q-29 0 -41.5 -13.5t-12.5 -45.5v-31h98v-95h-98v-422h-142z" />
    <glyph glyph-name="fl" unicode="fl" horiz-adv-x="611" 
d="M411 0v714h142v-714h-142zM85 0v422h-85v95h85v40q0 71 44.5 114t128.5 43q14 0 41 -2t34 -2v-106q-26 3 -52 3q-29 0 -41.5 -13.5t-12.5 -45.5v-31h98v-95h-98v-422h-142z" />
    <glyph glyph-name=".notdef" horiz-adv-x="500" 
d="M0 0v700h500v-700h-500zM250 395l170 255h-340zM280 350l170 -255v510zM80 50h340l-170 255zM50 605v-510l170 255z" />
    <glyph glyph-name=".null" horiz-adv-x="0" 
 />
    <glyph glyph-name="nonmarkingreturn" horiz-adv-x="333" 
 />
    <glyph glyph-name="space" unicode=" " horiz-adv-x="278" 
 />
    <glyph glyph-name="exclam" unicode="!" horiz-adv-x="278" 
d="M213 714v-192l-39 -308h-71l-38 308v192h148zM61 0v154h157v-154h-157z" />
    <glyph glyph-name="quotedbl" unicode="&#x22;" horiz-adv-x="463" 
d="M271 393v321h107v-321h-107zM85 393v321h107v-321h-107z" />
    <glyph glyph-name="numbersign" unicode="#" 
d="M88 0l28 198h-83v90h95l18 124h-83v90h95l28 198h97l-28 -198h97l27 198h97l-27 -198h74v-90h-87l-17 -124h74v-90h-87l-27 -198h-97l27 198h-96l-28 -198h-97zM339 412h-96l-18 -124h97z" />
    <glyph glyph-name="dollar" unicode="$" 
d="M248 451v163q-36 0 -63 -22t-27 -61q0 -33 20.5 -51t69.5 -29zM307 292v-192q43 4 75.5 29t32.5 69q0 39 -23 58t-85 36zM-1 232h142q-1 -53 29 -88t78 -44v209q-8 3 -32 9q-45 12 -75 24.5t-61.5 34.5t-47.5 57t-16 83q0 97 67.5 152.5t164.5 61.5v77h59v-77
q96 -11 157.5 -63t67.5 -150h-142q-1 40 -25 68t-58 28v-177q42 -10 51 -13q56 -15 95.5 -39t59 -46t30.5 -52.5t12.5 -49t1.5 -45.5q0 -19 -6.5 -42.5t-24.5 -52t-44.5 -52t-72 -41t-102.5 -21.5v-85h-59v85q-227 17 -249 249z" />
    <glyph glyph-name="percent" unicode="%" horiz-adv-x="1000" 
d="M75 516q0 87 43 142.5t127 55.5q87 0 125.5 -55.5t38.5 -146.5q0 -86 -42.5 -137t-126.5 -51q-165 0 -165 192zM177 514q0 -18 0.5 -29t4 -29.5t9.5 -29t19 -19t31 -8.5q66 0 66 114q0 126 -62 126q-68 0 -68 -125zM591 183q0 86 43 139.5t127 53.5q164 0 164 -197
q0 -86 -42.5 -139.5t-126.5 -53.5q-87 0 -126 53.5t-39 143.5zM693 182q0 -19 0.5 -30t4 -30.5t9.5 -31t19 -20.5t31 -9q66 0 66 120t-62 120q-68 0 -68 -119zM254 -22l414 744h85l-412 -744h-87z" />
    <glyph glyph-name="ampersand" unicode="&#x26;" horiz-adv-x="685" 
d="M382 559q0 28 -19.5 48t-45.5 20t-45 -18t-19 -45q0 -9 1.5 -18t5.5 -17.5t6.5 -14.5t9.5 -15.5l10 -13.5t12 -14.5t11 -13.5q25 16 38 27t24 30.5t11 44.5zM389 166l-122 149q-100 -44 -100 -118q0 -39 30.5 -66.5t71.5 -27.5q64 0 120 63zM522 0l-58 71
q-87 -85 -201 -85q-100 0 -165.5 57.5t-65.5 156.5q0 70 45 122t115 85q-34 42 -51 76t-17 76q0 72 56 117.5t130 45.5q85 0 140.5 -44.5t55.5 -126.5q0 -111 -127 -178l92 -113q19 36 26 85h123q-11 -104 -69 -176l145 -169h-174z" />
    <glyph glyph-name="quotesingle" unicode="'" horiz-adv-x="278" 
d="M86 393v321h107v-321h-107z" />
    <glyph glyph-name="parenleft" unicode="(" horiz-adv-x="296" 
d="M184 731h119q-109 -208 -109 -453q0 -250 108 -460h-118q-132 219 -132 450q0 118 34.5 245t97.5 218z" />
    <glyph glyph-name="parenright" unicode=")" horiz-adv-x="296" 
d="M112 -182h-119q109 206 109 452q0 249 -108 461h118q132 -221 132 -451q0 -118 -34.5 -244.5t-97.5 -217.5z" />
    <glyph glyph-name="asterisk" unicode="*" horiz-adv-x="407" 
d="M242 714v-125l116 44l27 -77l-118 -39l74 -98l-66 -49l-74 103l-70 -103l-67 49l74 98l-116 39l27 77l113 -44v125h80z" />
    <glyph glyph-name="plus" unicode="+" horiz-adv-x="600" 
d="M354 505v-199h199v-107h-199v-199h-107v199h-199v107h199v199h107z" />
    <glyph glyph-name="comma" unicode="," horiz-adv-x="278" 
d="M61 0v154h157v-154q0 -67 -44.5 -111.5t-111.5 -54.5v72q31 5 52 33t19 61h-72z" />
    <glyph glyph-name="hyphen" unicode="-" horiz-adv-x="407" 
d="M53 212v122h301v-122h-301z" />
    <glyph glyph-name="period" unicode="." horiz-adv-x="278" 
d="M60 0v154h157v-154h-157z" />
    <glyph glyph-name="slash" unicode="/" horiz-adv-x="371" 
d="M-11 -17l279 748h114l-279 -748h-114z" />
    <glyph glyph-name="zero" unicode="0" 
d="M21 353q0 191 70.5 276t185.5 85q55 0 100 -18.5t81.5 -59t56.5 -112.5t20 -171q0 -196 -71 -281.5t-187 -85.5q-115 0 -185.5 86t-70.5 281zM163 353q0 -35 0.5 -57.5t6.5 -63.5t17 -65.5t34.5 -44t55.5 -19.5q33 0 56.5 19.5t34.5 44t17 65.5t7 63.5t1 57.5
q0 23 -0.5 37t-2.5 42.5t-6 47.5t-12.5 43t-20.5 38.5t-31 25t-43 10.5t-42.5 -10.5t-30 -25t-20 -38.5t-12.5 -43t-6 -47.5t-2.5 -42.5t-0.5 -37z" />
    <glyph glyph-name="one" unicode="1" 
d="M392 700v-700h-142v454h-176v107q82 -2 138 31t67 108h113z" />
    <glyph glyph-name="two" unicode="2" 
d="M173 431h-136q-4 124 63.5 203.5t190.5 79.5q100 0 170 -60t70 -159q0 -72 -32.5 -120.5t-92.5 -91.5l-52 -35l-57 -37.5t-48.5 -39t-44.5 -49.5h331v-122h-514q0 47 13 87.5t29.5 68.5t50 59t58 49t70.5 49q4 3 31 20.5t35.5 24t29 24t28 30t15.5 32t8 40.5
q0 49 -29.5 78.5t-75.5 29.5q-58 0 -84.5 -48t-26.5 -113z" />
    <glyph glyph-name="three" unicode="3" 
d="M228 317v100q26 -2 49.5 0.5t47 11t38 28t14.5 47.5q0 43 -29 68t-70 25q-52 0 -80.5 -34.5t-27.5 -90.5h-135q4 108 69.5 175t172.5 67q91 0 163 -53t72 -141q0 -52 -25.5 -91t-72.5 -52v-2q57 -13 90.5 -56.5t33.5 -102.5q0 -106 -76 -168t-184 -62q-120 0 -191 68
t-69 187h135q2 -61 33 -99.5t90 -38.5q49 0 81.5 30.5t32.5 79.5q0 26 -6.5 44.5t-21 29.5t-26.5 17.5t-36 9t-35.5 3t-36.5 0.5z" />
    <glyph glyph-name="four" unicode="4" 
d="M312 0v162h-296v130l304 408h127v-421h93v-117h-93v-162h-135zM312 279v243h-3l-181 -243h184z" />
    <glyph glyph-name="five" unicode="5" 
d="M500 700v-117h-289l-28 -159l2 -2q53 54 137 54q100 0 158 -68t58 -170q0 -107 -76.5 -180.5t-183.5 -71.5q-108 0 -183.5 58.5t-76.5 163.5h142q5 -47 37 -76t78 -29q54 0 87.5 40t33.5 95q0 56 -32.5 93.5t-88.5 37.5q-37 0 -61 -13t-46 -43h-128l69 387h391z" />
    <glyph glyph-name="six" unicode="6" 
d="M523 520h-135q-7 37 -32.5 62t-61.5 25t-63 -21.5t-41.5 -56.5t-21 -68t-8.5 -67l2 -2q55 78 158 78q45 0 88 -19.5t73 -52.5q54 -63 54 -156q0 -109 -68.5 -182.5t-176.5 -73.5q-76 0 -131 31t-83.5 84.5t-41.5 114t-13 132.5q0 67 15.5 129.5t47 117t86.5 87t126 32.5
q92 0 153.5 -51.5t73.5 -142.5zM286 363q-54 0 -83.5 -37.5t-29.5 -92.5q0 -52 31 -91t82 -39q48 0 77.5 38.5t29.5 89.5q0 54 -27.5 93t-79.5 39z" />
    <glyph glyph-name="seven" unicode="7" 
d="M517 700v-122q-104 -91 -165.5 -258.5t-63.5 -319.5h-152q12 154 73 300.5t162 267.5h-332v132h478z" />
    <glyph glyph-name="eight" unicode="8" 
d="M156 212q0 -53 36 -86t88 -33t86 33t34 85q0 49 -34.5 80.5t-85.5 31.5q-54 0 -89 -29.5t-35 -81.5zM43 523q0 89 71.5 140t164.5 51q62 0 109.5 -19.5t73.5 -49.5t38.5 -60.5t12.5 -58.5q0 -53 -26.5 -92t-75.5 -55v-2q62 -14 96.5 -59.5t34.5 -111.5q0 -104 -78 -162
t-184 -58q-110 0 -188 56t-78 163q0 66 35 111.5t97 60.5v2q-50 14 -76.5 52.5t-26.5 91.5zM172 510q0 -44 31 -68t76 -24t75 24.5t30 67.5q0 37 -23.5 67t-81.5 30q-45 0 -76 -26t-31 -71z" />
    <glyph glyph-name="nine" unicode="9" 
d="M33 180h135q7 -37 32.5 -62t61.5 -25t63 21.5t41.5 56.5t21 68t8.5 67l-2 2q-55 -78 -158 -78q-45 0 -88 19.5t-73 52.5q-54 63 -54 156q0 109 68.5 182.5t176.5 73.5q76 0 131 -31t83.5 -84.5t41.5 -114t13 -132.5q0 -67 -15.5 -129.5t-47 -117t-86.5 -87t-126 -32.5
q-92 0 -153.5 51.5t-73.5 142.5zM270 337q54 0 83.5 37.5t29.5 92.5q0 52 -31 91t-82 39q-48 0 -77.5 -38.5t-29.5 -89.5q0 -54 27.5 -93t79.5 -39z" />
    <glyph glyph-name="colon" unicode=":" horiz-adv-x="278" 
d="M61 0v154h157v-154h-157zM218 508v-154h-157v154h157z" />
    <glyph glyph-name="semicolon" unicode=";" horiz-adv-x="278" 
d="M61 0v154h157v-154q-1 -67 -45 -111.5t-111 -54.5v72q31 5 52 33t19 61h-72zM218 508v-154h-157v154h157z" />
    <glyph glyph-name="less" unicode="&#x3c;" horiz-adv-x="600" 
d="M554 514v-115l-367 -146l367 -146v-115l-508 202v118z" />
    <glyph glyph-name="equal" unicode="=" horiz-adv-x="600" 
d="M553 413v-107h-505v107h505zM553 199v-107h-505v107h505z" />
    <glyph glyph-name="greater" unicode="&#x3e;" horiz-adv-x="600" 
d="M46 -8v115l367 146l-367 146v115l508 -202v-118z" />
    <glyph glyph-name="question" unicode="?" 
d="M179 484h-147q2 109 68.5 178t174.5 69q67 0 118 -19t78 -49t40 -62t13 -63q0 -65 -22 -101.5t-62 -67.5q-5 -4 -18 -13.5l-19 -14t-16.5 -13.5t-16 -15.5t-12.5 -16.5t-10.5 -21t-5.5 -23v-38h-135v45q4 59 26.5 93.5t60.5 63.5q46 36 57 54q16 23 16 54q0 90 -85 90
q-51 0 -76.5 -36.5t-26.5 -93.5zM193 0v154h157v-154h-157z" />
    <glyph glyph-name="at" unicode="@" horiz-adv-x="800" 
d="M291 319q0 -40 21.5 -64.5t56.5 -24.5q51 0 87 48t36 103q0 36 -22.5 60.5t-54.5 24.5q-51 0 -87.5 -47t-36.5 -100zM622 545l-63 -258q-20 -66 9 -66q45 0 81.5 53.5t36.5 130.5q0 116 -76.5 181t-194.5 65q-127 0 -205 -83.5t-78 -212.5q0 -130 82.5 -211t212.5 -81
q133 0 215 82h84q-51 -77 -131 -119.5t-174 -42.5q-161 0 -273 107.5t-112 266.5q0 157 111.5 265.5t268.5 108.5q142 0 245 -85.5t103 -219.5q0 -59 -18.5 -109t-46 -82.5t-60.5 -55.5t-61 -33t-49 -10q-31 0 -51 16t-22 41h-2q-35 -58 -108 -58q-64 0 -110.5 50.5
t-46.5 120.5q0 100 61.5 177.5t156.5 77.5q36 0 68.5 -17t48.5 -53l16 54h82z" />
    <glyph glyph-name="A" unicode="A" horiz-adv-x="685" 
d="M-7 0l271 714h161l267 -714h-163l-54 159h-267l-56 -159h-159zM342 538l-93 -262h185l-90 262h-2z" />
    <glyph glyph-name="B" unicode="B" horiz-adv-x="704" 
d="M226 318v-196h168q116 0 116 94q0 102 -113 102h-171zM69 0v714h336q228 0 228 -177q0 -102 -97 -149q64 -18 97.5 -65.5t33.5 -115.5q0 -102 -73 -154.5t-179 -52.5h-346zM226 592v-167h159q44 0 70 21t26 64q0 82 -108 82h-147z" />
    <glyph glyph-name="C" unicode="C" horiz-adv-x="741" 
d="M697 474h-152q-7 53 -52 89t-104 36q-67 0 -112 -36t-63.5 -89.5t-18.5 -119.5q0 -100 48 -169.5t146 -69.5q70 0 111.5 43.5t50.5 116.5h152q-12 -133 -97.5 -212.5t-216.5 -79.5q-161 0 -256 105.5t-95 265.5q0 164 94.5 270.5t256.5 106.5q122 0 208 -68.5t100 -188.5
z" />
    <glyph glyph-name="D" unicode="D" horiz-adv-x="741" 
d="M69 0v714h308q145 0 234.5 -90.5t89.5 -262.5q0 -162 -83 -261.5t-241 -99.5h-308zM226 582v-450h140q76 0 127 52t51 162q0 115 -47 175.5t-159 60.5h-112z" />
    <glyph glyph-name="E" unicode="E" horiz-adv-x="648" 
d="M69 0v714h534v-132h-377v-153h346v-122h-346v-175h385v-132h-542z" />
    <glyph glyph-name="F" unicode="F" horiz-adv-x="593" 
d="M69 0v714h502v-132h-345v-165h299v-122h-299v-295h-157z" />
    <glyph glyph-name="G" unicode="G" horiz-adv-x="759" 
d="M601 0l-16 81q-76 -98 -196 -98q-161 0 -256 105.5t-95 265.5q0 164 94.5 270.5t256.5 106.5q115 0 202 -67.5t99 -184.5h-150q-13 58 -53.5 89t-97.5 31q-67 0 -112 -36t-63.5 -89.5t-18.5 -119.5q0 -100 48 -169.5t146 -69.5q76 0 119.5 39.5t50.5 114.5h-158v117h300
v-386h-100z" />
    <glyph glyph-name="H" unicode="H" horiz-adv-x="741" 
d="M69 0v714h157v-274h289v274h157v-714h-157v308h-289v-308h-157z" />
    <glyph glyph-name="I" unicode="I" horiz-adv-x="295" 
d="M69 0v714h157v-714h-157z" />
    <glyph glyph-name="J" unicode="J" 
d="M487 714v-489q0 -242 -238 -242q-98 0 -166.5 55.5t-68.5 165.5v62h142v-32q0 -58 19.5 -88.5t71.5 -30.5q24 0 40.5 8t24.5 18t12.5 29t5 30t0.5 32v482h157z" />
    <glyph glyph-name="K" unicode="K" horiz-adv-x="722" 
d="M69 0v714h157v-296l279 296h196l-279 -282l306 -432h-197l-215 321l-90 -91v-230h-157z" />
    <glyph glyph-name="L" unicode="L" horiz-adv-x="593" 
d="M69 0v714h157v-582h348v-132h-505z" />
    <glyph glyph-name="M" unicode="M" horiz-adv-x="907" 
d="M69 0v714h221l167 -491h2l158 491h221v-714h-147v506h-2l-175 -506h-121l-175 501h-2v-501h-147z" />
    <glyph glyph-name="N" unicode="N" horiz-adv-x="741" 
d="M69 0v714h156l298 -479h2v479h147v-714h-157l-297 478h-2v-478h-147z" />
    <glyph glyph-name="O" unicode="O" horiz-adv-x="778" 
d="M38 354q0 164 94.5 270.5t256.5 106.5t256.5 -106.5t94.5 -270.5q0 -160 -95 -265.5t-256 -105.5t-256 105.5t-95 265.5zM195 354q0 -100 48 -169.5t146 -69.5t146 69.5t48 169.5q0 66 -18.5 119.5t-63.5 89.5t-112 36t-112 -36t-63.5 -89.5t-18.5 -119.5z" />
    <glyph glyph-name="P" unicode="P" horiz-adv-x="667" 
d="M69 0v714h322q85 0 142.5 -34t81 -83.5t23.5 -111.5t-23.5 -111.5t-81 -83.5t-142.5 -34h-165v-256h-157zM226 592v-214h122q64 0 101 22.5t37 84.5t-37 84.5t-101 22.5h-122z" />
    <glyph glyph-name="Q" unicode="Q" horiz-adv-x="778" 
d="M736 10l-73 -77l-101 92q-73 -42 -173 -42q-161 0 -256 105.5t-95 265.5q0 164 94.5 270.5t256.5 106.5t256.5 -106.5t94.5 -270.5q0 -158 -93 -263zM385 186l73 78l81 -74q44 61 44 164q0 66 -18.5 119.5t-63.5 89.5t-112 36t-112 -36t-63.5 -89.5t-18.5 -119.5
q0 -100 48 -169.5t146 -69.5q52 0 63 10z" />
    <glyph glyph-name="R" unicode="R" horiz-adv-x="722" 
d="M69 0v714h385q94 0 151.5 -57t57.5 -140q0 -133 -113 -179v-2q94 -24 104 -167q0 -6 1.5 -30t2.5 -38.5t4 -35.5t8.5 -37.5t13.5 -27.5h-157q-8 20 -12.5 48.5t-7 66.5t-5.5 56q-8 58 -34.5 83t-84.5 25h-157v-279h-157zM226 592v-201h172q108 0 108 102q0 99 -108 99
h-172z" />
    <glyph glyph-name="S" unicode="S" horiz-adv-x="649" 
d="M24 237h152q0 -67 44.5 -99.5t113.5 -32.5q33 0 61.5 6.5t53 27.5t24.5 55q0 16 -5.5 29t-18.5 23.5t-25.5 17.5t-35.5 14l-38.5 11.5t-44.5 11.5t-44 11q-47 12 -79 25t-66 36t-51 58.5t-17 83.5q0 69 40.5 120t99.5 73.5t127 22.5q79 0 141 -22t103.5 -75.5
t41.5 -132.5h-152q-6 108 -141 108q-43 0 -75.5 -20t-32.5 -61q0 -39 34 -55t179 -53q95 -24 141 -59q71 -55 71 -149q0 -102 -78 -165.5t-219 -63.5q-129 0 -217 65t-87 189z" />
    <glyph glyph-name="T" unicode="T" horiz-adv-x="611" 
d="M227 0v582h-214v132h585v-132h-214v-582h-157z" />
    <glyph glyph-name="U" unicode="U" horiz-adv-x="741" 
d="M675 714v-444q0 -142 -79.5 -214.5t-225.5 -72.5q-147 0 -225.5 72t-78.5 215v444h157v-444q0 -71 30.5 -113t116.5 -42q82 0 115 36.5t33 118.5v444h157z" />
    <glyph glyph-name="V" unicode="V" horiz-adv-x="630" 
d="M638 714l-237 -714h-177l-232 714h162l159 -502h2l161 502h162z" />
    <glyph glyph-name="W" unicode="W" horiz-adv-x="944" 
d="M941 714l-192 -714h-156l-121 486h-2l-119 -486h-159l-189 714h157l113 -486h2l124 486h147l122 -492h2l117 492h154z" />
    <glyph glyph-name="X" unicode="X" horiz-adv-x="667" 
d="M-6 0l250 374l-230 340h182l140 -228l145 228h172l-229 -341l249 -373h-187l-156 247l-159 -247h-177z" />
    <glyph glyph-name="Y" unicode="Y" horiz-adv-x="667" 
d="M254 0v278l-263 436h177l167 -282l166 282h175l-265 -440v-274h-157z" />
    <glyph glyph-name="Z" unicode="Z" horiz-adv-x="648" 
d="M23 0v124l383 458h-353v132h562v-124l-383 -458h393v-132h-602z" />
    <glyph glyph-name="bracketleft" unicode="[" horiz-adv-x="333" 
d="M68 -182v913h264v-112h-122v-689h122v-112h-264z" />
    <glyph glyph-name="backslash" unicode="\" horiz-adv-x="371" 
d="M103 731l279 -748h-114l-279 748h114z" />
    <glyph glyph-name="bracketright" unicode="]" horiz-adv-x="333" 
d="M265 731v-913h-264v112h122v689h-122v112h264z" />
    <glyph glyph-name="asciicircum" unicode="^" horiz-adv-x="600" 
d="M61 315l172 385h134l172 -385h-117l-122 275l-122 -275h-117z" />
    <glyph glyph-name="underscore" unicode="_" horiz-adv-x="500" 
d="M0 -125v50h500v-50h-500z" />
    <glyph glyph-name="grave" unicode="`" horiz-adv-x="259" 
d="M106 581l-154 142h157l96 -142h-99z" />
    <glyph glyph-name="a" unicode="a" horiz-adv-x="574" 
d="M376 200v53q-8 -7 -23 -12.5t-27.5 -7.5t-34.5 -5t-33 -5q-40 -8 -62 -24.5t-22 -51.5q0 -66 87 -66q115 0 115 119zM190 358h-142q6 92 74.5 132.5t168.5 40.5q227 0 227 -147v-269q0 -86 18 -115h-144q-9 28 -10 50q-61 -64 -174 -64q-78 0 -127 39.5t-49 115.5
q0 42 14.5 72t41.5 46.5t54.5 25t65.5 13.5q14 2 36 4.5t35.5 4.5t30.5 5t27.5 7t20 10.5t14 15.5t4.5 21q0 42 -24 56t-68 14q-87 0 -94 -78z" />
    <glyph glyph-name="b" unicode="b" horiz-adv-x="611" 
d="M54 0v714h142v-260h2q51 77 163 77q86 0 150 -70t64 -202q0 -133 -64 -203t-150 -70q-126 0 -170 80h-2v-66h-135zM433 258q0 71 -30.5 118.5t-90.5 47.5t-90.5 -47.5t-30.5 -118.5q0 -70 31 -117.5t90 -47.5t90 47.5t31 117.5z" />
    <glyph glyph-name="c" unicode="c" horiz-adv-x="574" 
d="M545 335h-139q-14 89 -105 89q-62 0 -91.5 -50.5t-29.5 -117.5q0 -65 28.5 -114t89.5 -49q48 0 77 28t36 77h137q-13 -102 -79.5 -157t-169.5 -55q-116 0 -188.5 74t-72.5 191q0 124 70.5 202t193.5 78q98 0 167.5 -51t75.5 -145z" />
    <glyph glyph-name="d" unicode="d" horiz-adv-x="611" 
d="M423 0v66h-2q-47 -80 -157 -80q-111 0 -171.5 81t-60.5 196q0 112 60.5 190t168.5 78q47 0 88.5 -20t64.5 -57h2v260h142v-714h-135zM421 260q0 71 -29 117.5t-93 46.5q-65 0 -95 -47t-30 -118q0 -68 31.5 -117t93.5 -49q65 0 93.5 47t28.5 120z" />
    <glyph glyph-name="e" unicode="e" horiz-adv-x="574" 
d="M544 224h-373q6 -131 127 -131q41 0 73 20.5t39 46.5h125q-57 -174 -242 -174q-121 0 -192.5 75.5t-71.5 196.5q0 118 73.5 195.5t190.5 77.5q126 0 192.5 -90t58.5 -217zM171 314h231q-10 56 -36.5 83t-76.5 27q-60 0 -88 -35t-30 -75z" />
    <glyph glyph-name="f" unicode="f" horiz-adv-x="333" 
d="M85 0v422h-85v95h85v40q0 71 44.5 114t128.5 43q14 0 41 -2t34 -2v-106q-26 3 -52 3q-29 0 -41.5 -13.5t-12.5 -45.5v-31h98v-95h-98v-422h-142z" />
    <glyph glyph-name="g" unicode="g" horiz-adv-x="611" 
d="M551 517v-484q0 -30 -4.5 -57t-21.5 -60t-44.5 -56.5t-78.5 -39.5t-119 -16q-87 0 -155 42t-73 124h141q17 -71 106 -71q57 0 86 35t28 93v68h-2q-22 -39 -64 -59.5t-91 -20.5q-110 0 -165.5 73t-55.5 187q0 107 59 181.5t163 74.5q107 0 154 -83h2v69h135zM295 122
q58 0 89.5 41.5t31.5 101.5q0 70 -28.5 114.5t-92.5 44.5q-57 0 -86 -42t-29 -105q0 -64 27.5 -109.5t87.5 -45.5z" />
    <glyph glyph-name="h" unicode="h" horiz-adv-x="593" 
d="M54 0v714h142v-269h3q26 42 67.5 64t83.5 22q107 0 148 -54t41 -159v-318h-142v292q0 65 -21 96t-70 31q-58 0 -84 -35t-26 -113v-271h-142z" />
    <glyph glyph-name="i" unicode="i" horiz-adv-x="258" 
d="M58 0v517h142v-517h-142zM200 714v-117h-142v117h142z" />
    <glyph glyph-name="j" unicode="j" horiz-adv-x="278" 
d="M-19 -178v117q12 -4 31 -4q55 0 55 46v536h142v-543q0 -83 -39 -119.5t-143 -36.5q-16 0 -46 4zM209 714v-117h-142v117h142z" />
    <glyph glyph-name="k" unicode="k" horiz-adv-x="574" 
d="M67 0v714h142v-383l179 186h168l-195 -190l217 -327h-172l-142 231l-55 -53v-178h-142z" />
    <glyph glyph-name="l" unicode="l" horiz-adv-x="258" 
d="M58 0v714h142v-714h-142z" />
    <glyph glyph-name="m" unicode="m" horiz-adv-x="906" 
d="M58 0v517h134v-70h2q59 84 158 84q112 0 151 -86q25 37 65 61.5t91 24.5q88 0 138.5 -44.5t50.5 -140.5v-346h-142v293q0 24 -1 40t-6 34t-14 28t-25.5 17t-40.5 7q-95 0 -95 -131v-288h-142v290v7q0 24 -0.5 36t-5 31.5t-13 29t-25.5 17.5t-42 8q-13 0 -27 -5t-31 -16.5
t-27.5 -37t-10.5 -60.5v-300h-142z" />
    <glyph glyph-name="n" unicode="n" horiz-adv-x="593" 
d="M54 0v517h135v-72h3q26 42 68.5 64t89.5 22q107 0 148 -54t41 -159v-318h-142v292q0 65 -21 96t-70 31q-58 0 -84 -35t-26 -113v-271h-142z" />
    <glyph glyph-name="o" unicode="o" horiz-adv-x="611" 
d="M38 258q0 124 73 198.5t194 74.5q122 0 195 -74.5t73 -198.5q0 -123 -73 -197.5t-195 -74.5q-121 0 -194 74.5t-73 197.5zM180 258q0 -71 29.5 -118t95.5 -47q67 0 96.5 47t29.5 118t-29.5 118.5t-96.5 47.5q-66 0 -95.5 -47.5t-29.5 -118.5z" />
    <glyph glyph-name="p" unicode="p" horiz-adv-x="611" 
d="M54 -182v699h135v-66h2q49 80 154 80q115 0 175 -79.5t60 -198.5q0 -111 -59.5 -189t-167.5 -78q-47 0 -88.5 20t-66.5 58h-2v-246h-142zM315 93q65 0 94 46.5t29 117.5q0 70 -30.5 118.5t-93.5 48.5q-65 0 -94 -48t-29 -119q0 -70 30 -117t94 -47z" />
    <glyph glyph-name="q" unicode="q" horiz-adv-x="611" 
d="M558 517v-699h-142v247h-2q-23 -40 -68 -59.5t-95 -19.5q-38 0 -74.5 14.5t-70 44.5t-54 84.5t-20.5 125.5q0 115 60.5 195.5t171.5 80.5q112 0 157 -80h2v66h135zM174 258q0 -71 29 -118t94 -47q64 0 94 46t30 117q0 69 -29.5 118.5t-91.5 49.5q-64 0 -95 -48t-31 -118z
" />
    <glyph glyph-name="r" unicode="r" horiz-adv-x="389" 
d="M54 0v517h135v-96h2q19 48 66 79t99 31q16 0 31 -5v-132q-22 5 -51 5q-73 0 -106.5 -45.5t-33.5 -120.5v-233h-142z" />
    <glyph glyph-name="s" unicode="s" horiz-adv-x="537" 
d="M29 168h135q1 -44 32 -65.5t77 -21.5q37 0 65 16t28 50q0 16 -9.5 27.5t-33.5 21t-48.5 15.5t-69.5 16q-36 8 -61 17t-50.5 24.5t-39 39.5t-13.5 57q0 47 19 81t52.5 52t71 25.5t82.5 7.5q95 0 157.5 -38.5t70.5 -126.5h-135q-5 70 -97 70q-79 0 -79 -48q0 -11 4.5 -19.5
t14 -15t19 -11t26.5 -9t29.5 -7.5t33.5 -7.5l34 -7.5q77 -18 120.5 -49t43.5 -96q0 -94 -67.5 -137t-168.5 -43t-170 43.5t-73 138.5z" />
    <glyph glyph-name="t" unicode="t" horiz-adv-x="352" 
d="M234 672v-155h104v-95h-104v-256q0 -36 12 -48t48 -12q24 0 44 4v-111q-30 -5 -83 -5q-76 0 -119.5 26t-43.5 97v305h-86v95h86v155h142z" />
    <glyph glyph-name="u" unicode="u" horiz-adv-x="593" 
d="M539 517v-517h-135v72h-3q-26 -42 -68.5 -64t-89.5 -22q-107 0 -148 54t-41 159v318h142v-292q0 -65 21 -96t70 -31q58 0 84 35t26 113v271h142z" />
    <glyph glyph-name="v" unicode="v" horiz-adv-x="520" 
d="M515 517l-175 -517h-158l-177 517h149l109 -353h2l109 353h141z" />
    <glyph glyph-name="w" unicode="w" horiz-adv-x="814" 
d="M808 517l-163 -517h-146l-92 347h-2l-88 -347h-147l-164 517h150l95 -351h2l86 351h138l88 -350h2l95 350h146z" />
    <glyph glyph-name="x" unicode="x" horiz-adv-x="537" 
d="M0 0l186 272l-170 245h162l91 -135l90 135h157l-170 -242l191 -275h-162l-108 163l-108 -163h-159z" />
    <glyph glyph-name="y" unicode="y" horiz-adv-x="519" 
d="M525 517l-216 -582q-23 -63 -64 -90t-114 -27q-39 0 -87 5v117q73 -5 83 -5q35 4 48.5 34t0.5 63l-182 485h152l117 -354h2l113 354h147z" />
    <glyph glyph-name="z" unicode="z" horiz-adv-x="519" 
d="M22 0v107l269 303h-249v107h436v-107l-269 -303h288v-107h-475z" />
    <glyph glyph-name="braceleft" unicode="{" horiz-adv-x="333" 
d="M333 731v-112h-54q-54 0 -54 -73v-152q0 -105 -99 -118v-3q34 -3 66.5 -29t32.5 -81v-160q0 -73 54 -73h54v-112h-127q-41 0 -82 36.5t-41 98.5v195q0 41 -30.5 62t-61.5 21v87q31 0 61.5 22.5t30.5 67.5v188q0 62 41 98.5t82 36.5h127z" />
    <glyph glyph-name="bar" unicode="|" horiz-adv-x="223" 
d="M58 -214v1000h107v-1000h-107z" />
    <glyph glyph-name="braceright" unicode="}" horiz-adv-x="333" 
d="M0 -182v112h54q54 0 54 73v160q0 55 32.5 81t66.5 29v3q-99 13 -99 118v152q0 73 -54 73h-54v112h127q41 0 82 -36.5t41 -98.5v-188q0 -45 30.5 -67.5t61.5 -22.5v-87q-31 0 -61.5 -21t-30.5 -62v-195q0 -62 -41 -98.5t-82 -36.5h-127z" />
    <glyph glyph-name="asciitilde" unicode="~" horiz-adv-x="600" 
d="M493 344l40 -93q-20 -27 -33 -42t-38 -29.5t-54 -14.5q-42 0 -102 33q-62 35 -115 35q-51 0 -84 -72l-40 93q45 86 125 86q39 0 111 -32l21.5 -9.5t23 -10l20 -8t20.5 -6.5t17 -2q19 0 36.5 12t27 24.5t24.5 35.5z" />
    <glyph glyph-name="uni00A0" unicode="&#xa0;" horiz-adv-x="278" 
 />
    <glyph glyph-name="exclamdown" unicode="&#xa1;" horiz-adv-x="278" 
d="M218 531v-154h-157v154h157zM65 -183v192l39 308h71l38 -308v-192h-148z" />
    <glyph glyph-name="cent" unicode="&#xa2;" 
d="M260 93v330q-50 -13 -73.5 -57.5t-23.5 -101.5q0 -141 97 -171zM260 -115v101q-106 7 -172.5 81.5t-66.5 182.5q0 117 63 194t176 87v85h59v-85q87 -1 154 -56t70 -141h-139q-3 36 -27 61.5t-58 28.5v-331q36 7 61 39t26 71h139q-8 -93 -70.5 -151t-155.5 -66v-101h-59z
" />
    <glyph glyph-name="sterling" unicode="&#xa3;" 
d="M88 -17l-62 93q113 73 113 166q0 29 -19 67h-99v85h64q-17 22 -31 59.5t-14 78.5q0 84 67.5 141.5t188.5 57.5q115 0 179.5 -65t63.5 -185h-135l-3 29.5t-7.5 33t-17 36t-31.5 23.5t-50 11q-44 0 -71 -25t-27 -67q0 -19 1.5 -31.5t11 -37.5t28.5 -59h133v-85h-105
q8 -27 8 -62q0 -75 -82 -140l2 -2q37 23 68 23q22 0 79 -11q52 -12 78 -12q47 0 88 43l60 -101q-67 -64 -156 -64q-59 0 -109 18q-58 20 -99 20q-66 0 -115 -38z" />
    <glyph glyph-name="currency" unicode="&#xa4;" 
d="M20 149l57 58q-48 56 -48 142q0 96 48 144l-57 58l57 57l57 -56q54 46 146 46q87 0 137 -45l58 57l61 -61l-56 -55q45 -50 45 -143q0 -89 -46 -146l55 -56l-55 -55l-57 58q-52 -50 -143 -50q-93 0 -147 49l-56 -58zM280 491q-60 0 -93.5 -41.5t-33.5 -100.5
q0 -58 33.5 -99t92.5 -41q58 0 90 42t32 100q0 57 -32 98.5t-89 41.5z" />
    <glyph glyph-name="yen" unicode="&#xa5;" 
d="M359 0h-152v138h-157v95h157v46l-14 29h-143v95h95l-154 311h163l132 -311l129 311h162l-155 -311h95v-95h-143l-15 -29v-46h158v-95h-158v-138z" />
    <glyph glyph-name="brokenbar" unicode="&#xa6;" horiz-adv-x="223" 
d="M58 -89v250h107v-250h-107zM165 661v-250h-107v250h107z" />
    <glyph glyph-name="section" unicode="&#xa7;" 
d="M377 287l-165 93q-21 11 -27 10q-21 -2 -36 -23t-15 -44q0 -32 32 -49l180 -98q16 -7 30 -7q18 0 32 18.5t14 36.5q0 39 -45 63zM494 538h-124q0 38 -23 62t-62 24q-29 0 -52.5 -18t-23.5 -46q0 -12 4.5 -22.5t15 -20.5t21 -17.5t28.5 -17t30.5 -15.5l35 -16.5
l35.5 -16.5q79 -37 123 -78.5t44 -105.5q0 -49 -28.5 -89t-75.5 -57q55 -42 55 -118q0 -79 -64.5 -123.5t-148.5 -44.5q-101 0 -163.5 48.5t-61.5 145.5h124q5 -87 98 -87q32 0 53 17t21 49q0 10 -2.5 18.5t-9 17t-12.5 15t-18 14.5t-20.5 13t-24.5 13l-25.5 12.5l-28.5 13
t-29 13.5q-82 39 -128.5 81.5t-46.5 108.5q0 108 107 146q-43 46 -43 101q0 80 63 126.5t146 46.5q92 0 151.5 -51.5t59.5 -141.5z" />
    <glyph glyph-name="dieresis" unicode="&#xa8;" horiz-adv-x="259" 
d="M165 597v117h135v-117h-135zM-41 597v117h135v-117h-135z" />
    <glyph glyph-name="copyright" unicode="&#xa9;" horiz-adv-x="800" 
d="M16 357q0 110 54 197t141 132t189 45t189 -45t141 -132t54 -197q0 -165 -113 -269.5t-271 -104.5t-271 104.5t-113 269.5zM118 357q0 -126 81.5 -210t200.5 -84q118 0 200 84t82 210q0 127 -82 210.5t-200 83.5q-119 0 -200.5 -83.5t-81.5 -210.5zM515 295h81
q-12 -73 -62.5 -115.5t-119.5 -42.5q-96 0 -155.5 63.5t-59.5 158.5q0 99 57.5 161.5t155.5 62.5q71 0 121 -40.5t60 -114.5h-78q-7 35 -35.5 55t-67.5 20q-56 0 -86.5 -39.5t-30.5 -102.5q0 -60 33 -102t86 -42q41 0 69 21t32 57z" />
    <glyph glyph-name="ordfeminine" unicode="&#xaa;" horiz-adv-x="344" 
d="M230 515v20q-6 -6 -17 -9t-29 -5.5t-21 -3.5q-51 -11 -51 -40q0 -37 45 -37q73 0 73 75zM122 605h-102q8 60 55 87q38 22 101 22q150 0 150 -89v-166q0 -54 12 -75h-101q-5 15 -7 31q-39 -40 -108 -40q-50 0 -81 24.5t-31 75.5q0 49 31 70t83 27q9 1 24.5 2.5t23.5 2.5
t19 3t17 4t12 5.5t8.5 8.5t2.5 12q0 23 -15.5 31t-44.5 8q-19 0 -33 -11t-16 -33z" />
    <glyph glyph-name="guillemotleft" unicode="&#xab;" horiz-adv-x="444" 
d="M402 80l-157 125v135l157 123v-120l-90 -71l90 -72v-120zM199 80l-157 125v135l157 123v-120l-90 -71l90 -72v-120z" />
    <glyph glyph-name="logicalnot" unicode="&#xac;" horiz-adv-x="600" 
d="M552 406v-307h-107v200h-397v107h504z" />
    <glyph glyph-name="uni00AD" unicode="&#xad;" horiz-adv-x="407" 
d="M53 212v122h301v-122h-301z" />
    <glyph glyph-name="registered" unicode="&#xae;" horiz-adv-x="800" 
d="M16 358q0 165 113 269t271 104t271 -104t113 -269q0 -166 -113 -270.5t-271 -104.5t-271 104.5t-113 270.5zM118 358q0 -127 81.5 -211t200.5 -84q118 0 200 84t82 211q0 126 -82 209.5t-200 83.5q-119 0 -200.5 -83.5t-81.5 -209.5zM251 149v419h158q82 0 123 -29
t41 -95q0 -103 -110 -112l112 -183h-87l-102 179h-52v-179h-83zM334 503v-110h74q41 0 61.5 11.5t20.5 46.5q0 52 -86 52h-70z" />
    <glyph glyph-name="macron" unicode="&#xaf;" horiz-adv-x="259" 
d="M-57 616v75h373v-75h-373z" />
    <glyph glyph-name="degree" unicode="&#xb0;" horiz-adv-x="400" 
d="M52 566q0 62 43 105t105 43t105 -43t43 -105t-43 -105t-105 -43t-105 43t-43 105zM117 566q0 -36 25 -62t58 -26t58 26t25 62t-25 62t-58 26t-58 -26t-25 -62z" />
    <glyph glyph-name="plusminus" unicode="&#xb1;" horiz-adv-x="600" 
d="M354 506v-131h199v-107h-199v-131h-107v131h-199v107h199v131h107zM48 0v107h505v-107h-505z" />
    <glyph glyph-name="twosuperior" unicode="&#xb2;" horiz-adv-x="392" 
d="M130 540h-102q-1 80 45 127t136 47q66 0 111 -35.5t45 -99.5q0 -43 -21 -72.5t-60 -55.5l-41.5 -24.5t-56 -37t-34.5 -36.5h209v-80h-334q0 38 10 67.5t32.5 53t42 38t55.5 37.5q3 2 24 15t28 18.5t20.5 17.5t18.5 24.5t5 27.5q0 27 -17 44.5t-44 17.5q-38 0 -56 -29
t-16 -65z" />
    <glyph glyph-name="threesuperior" unicode="&#xb3;" horiz-adv-x="392" 
d="M164 464v70q20 0 32 1t29 5t25.5 14t8.5 27q0 24 -18.5 38.5t-43.5 14.5q-31 0 -49.5 -20.5t-17.5 -51.5h-96q2 70 45 111t117 41q64 0 111.5 -32.5t47.5 -90.5q0 -31 -17 -54.5t-49 -31.5v-2q37 -7 59 -33t22 -61q0 -69 -49.5 -107t-123.5 -38q-82 0 -129 41.5
t-46 118.5h96q2 -34 21.5 -57t55.5 -23q31 0 52 18t21 45q0 20 -9 32.5t-28 17.5t-31.5 6t-35.5 1z" />
    <glyph glyph-name="acute" unicode="&#xb4;" horiz-adv-x="259" 
d="M307 723l-154 -142h-99l96 142h157z" />
    <glyph glyph-name="mu" unicode="&#xb5;" horiz-adv-x="593" 
d="M539 517v-517h-135v72h-3q-25 -40 -63.5 -63t-66.5 -23q-53 0 -75 24v-192h-142v699h142v-292q0 -65 21 -96t70 -31q58 0 84 35t26 113v271h142z" />
    <glyph glyph-name="paragraph" unicode="&#xb6;" horiz-adv-x="620" 
d="M221 -166v523q-103 0 -161 47.5t-58 127.5q0 99 63 140.5t177 41.5h293v-880h-102v800h-110v-800h-102z" />
    <glyph glyph-name="periodcentered" unicode="&#xb7;" horiz-adv-x="278" 
d="M55 287q0 35 25 60t60 25q34 0 59 -25.5t25 -59.5q0 -32 -25 -58t-58 -26q-35 0 -60.5 25t-25.5 59z" />
    <glyph glyph-name="cedilla" unicode="&#xb8;" horiz-adv-x="259" 
d="M12 -196l21 48q42 -18 84 -18q40 0 40 34q0 32 -40 32q-21 0 -40 -7l-21 24l59 85h49l-39 -55h2q10 5 34 5q37 0 64.5 -18t27.5 -52q0 -100 -117 -100q-60 0 -124 22z" />
    <glyph glyph-name="onesuperior" unicode="&#xb9;" horiz-adv-x="392" 
d="M289 705v-432h-102v274h-110v75q116 -4 128 83h84z" />
    <glyph glyph-name="ordmasculine" unicode="&#xba;" horiz-adv-x="367" 
d="M12 544q0 78 46.5 124t124.5 46t125 -46t47 -124t-46.5 -123.5t-125.5 -45.5q-78 0 -124.5 45.5t-46.5 123.5zM119 544q0 -37 16.5 -65.5t47.5 -28.5q32 0 48.5 28.5t16.5 65.5q0 39 -16.5 67t-48.5 28q-31 0 -47.5 -28t-16.5 -67z" />
    <glyph glyph-name="guillemotright" unicode="&#xbb;" horiz-adv-x="444" 
d="M245 463l157 -123v-135l-157 -125v120l90 72l-90 71v120zM42 463l157 -123v-135l-157 -125v120l90 72l-90 71v120z" />
    <glyph glyph-name="onequarter" unicode="&#xbc;" horiz-adv-x="892" 
d="M689 0v89h-192v93l188 238h100v-251h57v-80h-57v-89h-96zM689 169v144h-2l-114 -144h116zM152 -22l414 744h85l-412 -744h-87zM236 705v-432h-102v274h-110v75q116 -4 128 83h84z" />
    <glyph glyph-name="onehalf" unicode="&#xbd;" horiz-adv-x="889" 
d="M152 -22l414 744h85l-412 -744h-87zM236 705v-432h-102v274h-110v75q116 -4 128 83h84zM611 267h-102q-1 80 45 127t136 47q66 0 111 -35.5t45 -99.5q0 -43 -21 -72.5t-60 -55.5l-41.5 -24.5t-56 -37t-34.5 -36.5h209v-80h-334q0 38 10 67.5t32.5 53t42 38t55.5 37.5
q3 2 24 15t28 18.5t20.5 17.5t18.5 24.5t5 27.5q0 27 -17 44.5t-44 17.5q-38 0 -56 -29t-16 -65z" />
    <glyph glyph-name="threequarters" unicode="&#xbe;" horiz-adv-x="889" 
d="M709 0v89h-192v93l188 238h100v-251h57v-80h-57v-89h-96zM709 169v144h-2l-114 -144h116zM239 -22l414 744h85l-412 -744h-87zM181 464v70q20 0 32 1t29 5t25.5 14t8.5 27q0 24 -18.5 38.5t-43.5 14.5q-31 0 -49.5 -20.5t-17.5 -51.5h-96q2 70 45 111t117 41
q64 0 111.5 -32.5t47.5 -90.5q0 -31 -17 -54.5t-49 -31.5v-2q37 -7 59 -33t22 -61q0 -69 -49.5 -107t-123.5 -38q-82 0 -129 41.5t-46 118.5h96q2 -34 21.5 -57t55.5 -23q31 0 52 18t21 45q0 20 -9 32.5t-28 17.5t-31.5 6t-35.5 1z" />
    <glyph glyph-name="questiondown" unicode="&#xbf;" 
d="M375 51h147q-2 -109 -68 -178t-173 -69q-67 0 -118 19t-78 49t-40 62t-13 63q0 65 22 101.5t62 67.5q5 4 18 13.5l19 14t16.5 13.5t16 15.5t12.5 16.5t10.5 21t5.5 23v38h135v-45q-4 -59 -26.5 -93.5t-60.5 -63.5q-46 -36 -57 -54q-16 -23 -16 -54q0 -90 85 -90
q50 0 75 36.5t26 93.5zM363 531v-154h-157v154h157z" />
    <glyph glyph-name="Agrave" unicode="&#xc0;" horiz-adv-x="685" 
d="M-7 0l271 714h161l267 -714h-163l-54 159h-267l-56 -159h-159zM342 538l-93 -262h185l-90 262h-2zM319 778l-154 142h157l96 -142h-99z" />
    <glyph glyph-name="Aacute" unicode="&#xc1;" horiz-adv-x="685" 
d="M-7 0l271 714h161l267 -714h-163l-54 159h-267l-56 -159h-159zM342 538l-93 -262h185l-90 262h-2zM520 920l-154 -142h-99l96 142h157z" />
    <glyph glyph-name="Acircumflex" unicode="&#xc2;" horiz-adv-x="685" 
d="M-7 0l271 714h161l267 -714h-163l-54 159h-267l-56 -159h-159zM342 538l-93 -262h185l-90 262h-2zM167 778l111 142h130l110 -142h-117l-62 81l-64 -81h-108z" />
    <glyph glyph-name="Atilde" unicode="&#xc3;" horiz-adv-x="685" 
d="M-7 0l271 714h161l267 -714h-163l-54 159h-267l-56 -159h-159zM342 538l-93 -262h185l-90 262h-2zM457 911h69q-16 -52 -31 -74q-28 -40 -81 -40q-29 0 -82 17q-47 17 -70 17q-19 0 -28 -10.5t-14 -31.5h-61q12 55 39.5 88.5t86.5 33.5q19 0 64 -17q42 -18 66 -18
q21 0 32 10t10 25z" />
    <glyph glyph-name="Adieresis" unicode="&#xc4;" horiz-adv-x="685" 
d="M-7 0l271 714h161l267 -714h-163l-54 159h-267l-56 -159h-159zM342 538l-93 -262h185l-90 262h-2zM378 794v117h135v-117h-135zM172 794v117h135v-117h-135z" />
    <glyph glyph-name="Aring" unicode="&#xc5;" horiz-adv-x="685" 
d="M-7 0l271 714h161l267 -714h-163l-54 159h-267l-56 -159h-159zM342 538l-93 -262h185l-90 262h-2zM279 853q0 -30 17.5 -50t45.5 -20t46 20t18 50t-18 50t-46 20t-45.5 -20t-17.5 -50zM220 853q0 50 36 86t86 36q51 0 87 -36t36 -86t-36 -86t-87 -36q-50 0 -86 36t-36 86
z" />
    <glyph glyph-name="AE" unicode="&#xc6;" horiz-adv-x="981" 
d="M418 582l-138 -306h172v306h-34zM-11 0l341 714h606v-132h-332v-153h312v-122h-312v-175h340v-132h-492v159h-224l-72 -159h-167z" />
    <glyph glyph-name="Ccedilla" unicode="&#xc7;" horiz-adv-x="741" 
d="M697 474h-152q-7 53 -52 89t-104 36q-67 0 -112 -36t-63.5 -89.5t-18.5 -119.5q0 -100 48 -169.5t146 -69.5q70 0 111.5 43.5t50.5 116.5h152q-12 -133 -96 -211.5t-215 -80.5l-26 -36h2q10 5 34 5q37 0 64.5 -18t27.5 -52q0 -100 -117 -100q-60 0 -124 22l21 48
q42 -18 84 -18q40 0 40 34q0 32 -40 32q-21 0 -40 -7l-21 24l48 69q-142 15 -224.5 117.5t-82.5 250.5q0 164 94.5 270.5t256.5 106.5q122 0 208 -68.5t100 -188.5z" />
    <glyph glyph-name="Egrave" unicode="&#xc8;" horiz-adv-x="648" 
d="M69 0v714h534v-132h-377v-153h346v-122h-346v-175h385v-132h-542zM301 778l-154 142h157l96 -142h-99z" />
    <glyph glyph-name="Eacute" unicode="&#xc9;" horiz-adv-x="648" 
d="M69 0v714h534v-132h-377v-153h346v-122h-346v-175h385v-132h-542zM502 920l-154 -142h-99l96 142h157z" />
    <glyph glyph-name="Ecircumflex" unicode="&#xca;" horiz-adv-x="648" 
d="M69 0v714h534v-132h-377v-153h346v-122h-346v-175h385v-132h-542zM149 778l111 142h130l110 -142h-117l-62 81l-64 -81h-108z" />
    <glyph glyph-name="Edieresis" unicode="&#xcb;" horiz-adv-x="648" 
d="M69 0v714h534v-132h-377v-153h346v-122h-346v-175h385v-132h-542zM360 794v117h135v-117h-135zM154 794v117h135v-117h-135z" />
    <glyph glyph-name="Igrave" unicode="&#xcc;" horiz-adv-x="295" 
d="M69 0v714h157v-714h-157zM124 778l-154 142h157l96 -142h-99z" />
    <glyph glyph-name="Iacute" unicode="&#xcd;" horiz-adv-x="295" 
d="M69 0v714h157v-714h-157zM325 920l-154 -142h-99l96 142h157z" />
    <glyph glyph-name="Icircumflex" unicode="&#xce;" horiz-adv-x="295" 
d="M69 0v714h157v-714h-157zM-28 778l111 142h130l110 -142h-117l-62 81l-64 -81h-108z" />
    <glyph glyph-name="Idieresis" unicode="&#xcf;" horiz-adv-x="295" 
d="M69 0v714h157v-714h-157zM183 794v117h135v-117h-135zM-23 794v117h135v-117h-135z" />
    <glyph glyph-name="Eth" unicode="&#xd0;" horiz-adv-x="741" 
d="M69 0v311h-66v116h66v287h308q145 0 234.5 -90.5t89.5 -262.5q0 -162 -83 -261.5t-241 -99.5h-308zM226 582v-155h160v-117h-160v-178h140q76 0 127 52t51 162q0 115 -47 175.5t-159 60.5h-112z" />
    <glyph glyph-name="Ntilde" unicode="&#xd1;" horiz-adv-x="741" 
d="M69 0v714h156l298 -479h2v479h147v-714h-157l-297 478h-2v-478h-147zM485 911h69q-16 -52 -31 -74q-28 -40 -81 -40q-29 0 -82 17q-47 17 -70 17q-19 0 -28 -10.5t-14 -31.5h-61q12 55 39.5 88.5t86.5 33.5q19 0 64 -17q42 -18 66 -18q21 0 32 10t10 25z" />
    <glyph glyph-name="Ograve" unicode="&#xd2;" horiz-adv-x="778" 
d="M38 354q0 164 94.5 270.5t256.5 106.5t256.5 -106.5t94.5 -270.5q0 -160 -95 -265.5t-256 -105.5t-256 105.5t-95 265.5zM195 354q0 -100 48 -169.5t146 -69.5t146 69.5t48 169.5q0 66 -18.5 119.5t-63.5 89.5t-112 36t-112 -36t-63.5 -89.5t-18.5 -119.5zM366 778
l-154 142h157l96 -142h-99z" />
    <glyph glyph-name="Oacute" unicode="&#xd3;" horiz-adv-x="778" 
d="M38 354q0 164 94.5 270.5t256.5 106.5t256.5 -106.5t94.5 -270.5q0 -160 -95 -265.5t-256 -105.5t-256 105.5t-95 265.5zM195 354q0 -100 48 -169.5t146 -69.5t146 69.5t48 169.5q0 66 -18.5 119.5t-63.5 89.5t-112 36t-112 -36t-63.5 -89.5t-18.5 -119.5zM567 920
l-154 -142h-99l96 142h157z" />
    <glyph glyph-name="Ocircumflex" unicode="&#xd4;" horiz-adv-x="778" 
d="M38 354q0 164 94.5 270.5t256.5 106.5t256.5 -106.5t94.5 -270.5q0 -160 -95 -265.5t-256 -105.5t-256 105.5t-95 265.5zM195 354q0 -100 48 -169.5t146 -69.5t146 69.5t48 169.5q0 66 -18.5 119.5t-63.5 89.5t-112 36t-112 -36t-63.5 -89.5t-18.5 -119.5zM214 778
l111 142h130l110 -142h-117l-62 81l-64 -81h-108z" />
    <glyph glyph-name="Otilde" unicode="&#xd5;" horiz-adv-x="778" 
d="M38 354q0 164 94.5 270.5t256.5 106.5t256.5 -106.5t94.5 -270.5q0 -160 -95 -265.5t-256 -105.5t-256 105.5t-95 265.5zM195 354q0 -100 48 -169.5t146 -69.5t146 69.5t48 169.5q0 66 -18.5 119.5t-63.5 89.5t-112 36t-112 -36t-63.5 -89.5t-18.5 -119.5zM504 911h69
q-16 -52 -31 -74q-28 -40 -81 -40q-29 0 -82 17q-47 17 -70 17q-19 0 -28 -10.5t-14 -31.5h-61q12 55 39.5 88.5t86.5 33.5q19 0 64 -17q42 -18 66 -18q21 0 32 10t10 25z" />
    <glyph glyph-name="Odieresis" unicode="&#xd6;" horiz-adv-x="778" 
d="M38 354q0 164 94.5 270.5t256.5 106.5t256.5 -106.5t94.5 -270.5q0 -160 -95 -265.5t-256 -105.5t-256 105.5t-95 265.5zM195 354q0 -100 48 -169.5t146 -69.5t146 69.5t48 169.5q0 66 -18.5 119.5t-63.5 89.5t-112 36t-112 -36t-63.5 -89.5t-18.5 -119.5zM425 794v117
h135v-117h-135zM219 794v117h135v-117h-135z" />
    <glyph glyph-name="multiply" unicode="&#xd7;" horiz-adv-x="600" 
d="M140 17l-76 76l161 160l-159 160l76 76l159 -160l160 160l76 -76l-161 -160l161 -160l-76 -76l-160 161z" />
    <glyph glyph-name="Oslash" unicode="&#xd8;" horiz-adv-x="778" 
d="M34 10l86 95q-82 100 -82 249q0 164 94.5 270.5t256.5 106.5q135 0 225 -77l80 89l50 -44l-84 -93q80 -102 80 -252q0 -160 -95 -265.5t-256 -105.5q-134 0 -223 76l-83 -92zM223 219l296 329q-49 51 -130 51q-67 0 -112 -36t-63.5 -89.5t-18.5 -119.5q0 -78 28 -135z
M556 490l-295 -326q49 -49 128 -49q98 0 146 69.5t48 169.5q0 78 -27 136z" />
    <glyph glyph-name="Ugrave" unicode="&#xd9;" horiz-adv-x="741" 
d="M675 714v-444q0 -142 -79.5 -214.5t-225.5 -72.5q-147 0 -225.5 72t-78.5 215v444h157v-444q0 -71 30.5 -113t116.5 -42q82 0 115 36.5t33 118.5v444h157zM347 778l-154 142h157l96 -142h-99z" />
    <glyph glyph-name="Uacute" unicode="&#xda;" horiz-adv-x="741" 
d="M675 714v-444q0 -142 -79.5 -214.5t-225.5 -72.5q-147 0 -225.5 72t-78.5 215v444h157v-444q0 -71 30.5 -113t116.5 -42q82 0 115 36.5t33 118.5v444h157zM548 920l-154 -142h-99l96 142h157z" />
    <glyph glyph-name="Ucircumflex" unicode="&#xdb;" horiz-adv-x="741" 
d="M675 714v-444q0 -142 -79.5 -214.5t-225.5 -72.5q-147 0 -225.5 72t-78.5 215v444h157v-444q0 -71 30.5 -113t116.5 -42q82 0 115 36.5t33 118.5v444h157zM195 778l111 142h130l110 -142h-117l-62 81l-64 -81h-108z" />
    <glyph glyph-name="Udieresis" unicode="&#xdc;" horiz-adv-x="741" 
d="M675 714v-444q0 -142 -79.5 -214.5t-225.5 -72.5q-147 0 -225.5 72t-78.5 215v444h157v-444q0 -71 30.5 -113t116.5 -42q82 0 115 36.5t33 118.5v444h157zM406 794v117h135v-117h-135zM200 794v117h135v-117h-135z" />
    <glyph glyph-name="Yacute" unicode="&#xdd;" horiz-adv-x="667" 
d="M254 0v278l-263 436h177l167 -282l166 282h175l-265 -440v-274h-157zM511 920l-154 -142h-99l96 142h157z" />
    <glyph glyph-name="Thorn" unicode="&#xde;" horiz-adv-x="667" 
d="M69 0v714h157v-97h165q85 0 142.5 -34t81 -83.5t23.5 -111.5t-23.5 -111.5t-81 -83.5t-142.5 -34h-165v-159h-157zM226 495v-214h122q64 0 101 22.5t37 84.5t-37 84.5t-101 22.5h-122z" />
    <glyph glyph-name="germandbls" unicode="&#xdf;" horiz-adv-x="611" 
d="M56 0v491q-2 240 235 240q96 0 161.5 -49t65.5 -143q0 -47 -26 -86.5t-67 -52.5v-2q63 -14 96.5 -63t33.5 -116q0 -95 -62 -164t-155 -69q-42 0 -82 6v116q16 -5 41 -5q50 0 83 35t33 86q0 56 -30.5 89t-91.5 33q-11 0 -35 -2v94q16 -2 22 -2q44 0 74.5 22.5t30.5 66.5
q0 89 -96 89q-42 0 -65.5 -26.5t-23.5 -71.5v-516h-142z" />
    <glyph glyph-name="agrave" unicode="&#xe0;" horiz-adv-x="574" 
d="M376 200v53q-8 -7 -23 -12.5t-27.5 -7.5t-34.5 -5t-33 -5q-40 -8 -62 -24.5t-22 -51.5q0 -66 87 -66q115 0 115 119zM190 358h-142q6 92 74.5 132.5t168.5 40.5q227 0 227 -147v-269q0 -86 18 -115h-144q-9 28 -10 50q-61 -64 -174 -64q-78 0 -127 39.5t-49 115.5
q0 42 14.5 72t41.5 46.5t54.5 25t65.5 13.5q14 2 36 4.5t35.5 4.5t30.5 5t27.5 7t20 10.5t14 15.5t4.5 21q0 42 -24 56t-68 14q-87 0 -94 -78zM264 581l-154 142h157l96 -142h-99z" />
    <glyph glyph-name="aacute" unicode="&#xe1;" horiz-adv-x="574" 
d="M376 200v53q-8 -7 -23 -12.5t-27.5 -7.5t-34.5 -5t-33 -5q-40 -8 -62 -24.5t-22 -51.5q0 -66 87 -66q115 0 115 119zM190 358h-142q6 92 74.5 132.5t168.5 40.5q227 0 227 -147v-269q0 -86 18 -115h-144q-9 28 -10 50q-61 -64 -174 -64q-78 0 -127 39.5t-49 115.5
q0 42 14.5 72t41.5 46.5t54.5 25t65.5 13.5q14 2 36 4.5t35.5 4.5t30.5 5t27.5 7t20 10.5t14 15.5t4.5 21q0 42 -24 56t-68 14q-87 0 -94 -78zM465 723l-154 -142h-99l96 142h157z" />
    <glyph glyph-name="acircumflex" unicode="&#xe2;" horiz-adv-x="574" 
d="M376 200v53q-8 -7 -23 -12.5t-27.5 -7.5t-34.5 -5t-33 -5q-40 -8 -62 -24.5t-22 -51.5q0 -66 87 -66q115 0 115 119zM190 358h-142q6 92 74.5 132.5t168.5 40.5q227 0 227 -147v-269q0 -86 18 -115h-144q-9 28 -10 50q-61 -64 -174 -64q-78 0 -127 39.5t-49 115.5
q0 42 14.5 72t41.5 46.5t54.5 25t65.5 13.5q14 2 36 4.5t35.5 4.5t30.5 5t27.5 7t20 10.5t14 15.5t4.5 21q0 42 -24 56t-68 14q-87 0 -94 -78zM112 581l111 142h130l110 -142h-117l-62 81l-64 -81h-108z" />
    <glyph glyph-name="atilde" unicode="&#xe3;" horiz-adv-x="574" 
d="M376 200v53q-8 -7 -23 -12.5t-27.5 -7.5t-34.5 -5t-33 -5q-40 -8 -62 -24.5t-22 -51.5q0 -66 87 -66q115 0 115 119zM190 358h-142q6 92 74.5 132.5t168.5 40.5q227 0 227 -147v-269q0 -86 18 -115h-144q-9 28 -10 50q-61 -64 -174 -64q-78 0 -127 39.5t-49 115.5
q0 42 14.5 72t41.5 46.5t54.5 25t65.5 13.5q14 2 36 4.5t35.5 4.5t30.5 5t27.5 7t20 10.5t14 15.5t4.5 21q0 42 -24 56t-68 14q-87 0 -94 -78zM402 714h69q-16 -52 -31 -74q-28 -40 -81 -40q-29 0 -82 17q-47 17 -70 17q-19 0 -28 -10.5t-14 -31.5h-61q12 55 39.5 88.5
t86.5 33.5q19 0 64 -17q42 -18 66 -18q21 0 32 10t10 25z" />
    <glyph glyph-name="adieresis" unicode="&#xe4;" horiz-adv-x="574" 
d="M376 200v53q-8 -7 -23 -12.5t-27.5 -7.5t-34.5 -5t-33 -5q-40 -8 -62 -24.5t-22 -51.5q0 -66 87 -66q115 0 115 119zM190 358h-142q6 92 74.5 132.5t168.5 40.5q227 0 227 -147v-269q0 -86 18 -115h-144q-9 28 -10 50q-61 -64 -174 -64q-78 0 -127 39.5t-49 115.5
q0 42 14.5 72t41.5 46.5t54.5 25t65.5 13.5q14 2 36 4.5t35.5 4.5t30.5 5t27.5 7t20 10.5t14 15.5t4.5 21q0 42 -24 56t-68 14q-87 0 -94 -78zM323 597v117h135v-117h-135zM117 597v117h135v-117h-135z" />
    <glyph glyph-name="aring" unicode="&#xe5;" horiz-adv-x="574" 
d="M376 200v53q-8 -7 -23 -12.5t-27.5 -7.5t-34.5 -5t-33 -5q-40 -8 -62 -24.5t-22 -51.5q0 -66 87 -66q115 0 115 119zM190 358h-142q6 92 74.5 132.5t168.5 40.5q227 0 227 -147v-269q0 -86 18 -115h-144q-9 28 -10 50q-61 -64 -174 -64q-78 0 -127 39.5t-49 115.5
q0 42 14.5 72t41.5 46.5t54.5 25t65.5 13.5q14 2 36 4.5t35.5 4.5t30.5 5t27.5 7t20 10.5t14 15.5t4.5 21q0 42 -24 56t-68 14q-87 0 -94 -78zM224 656q0 -30 17.5 -50t45.5 -20t46 20t18 50t-18 50t-46 20t-45.5 -20t-17.5 -50zM165 656q0 50 36 86t86 36q51 0 87 -36
t36 -86t-36 -86t-87 -36q-50 0 -86 36t-36 86z" />
    <glyph glyph-name="ae" unicode="&#xe6;" horiz-adv-x="907" 
d="M385 188v64q-9 -8 -25 -13.5t-28.5 -7.5l-35.5 -5.5t-33 -5.5q-39 -7 -61 -22.5t-22 -49.5q0 -67 88 -67q45 0 81 27.5t36 79.5zM878 224h-369q-2 -55 32.5 -99t90.5 -44q89 0 103 81h138q-21 -81 -86.5 -128.5t-151.5 -47.5q-132 0 -193 88q-34 -45 -91 -66.5
t-120 -21.5q-82 0 -137.5 37t-55.5 117q0 42 14 72t41 47t54 25t64 14q117 17 136 24q38 14 38 48q0 66 -92 66q-96 0 -99 -80h-142q2 62 39 102.5t88.5 56.5t116.5 16q124 0 171 -70q60 70 173 70q63 0 110 -25t74.5 -68.5t40.5 -97t13 -116.5zM509 314h227q1 50 -29.5 86
t-81.5 36q-52 0 -83.5 -36t-32.5 -86z" />
    <glyph glyph-name="ccedilla" unicode="&#xe7;" horiz-adv-x="574" 
d="M545 335h-139q-14 89 -105 89q-62 0 -91.5 -50.5t-29.5 -117.5q0 -65 28.5 -114t89.5 -49q48 0 77 28t36 77h137q-13 -99 -75.5 -153.5t-161.5 -57.5l-28 -40h2q10 5 34 5q37 0 64.5 -18t27.5 -52q0 -100 -117 -100q-60 0 -124 22l21 48q42 -18 84 -18q40 0 40 34
q0 32 -40 32q-21 0 -40 -7l-21 24l50 72q-102 10 -164 82.5t-62 179.5q0 124 70.5 202t193.5 78q98 0 167.5 -51t75.5 -145z" />
    <glyph glyph-name="egrave" unicode="&#xe8;" horiz-adv-x="574" 
d="M544 224h-373q6 -131 127 -131q41 0 73 20.5t39 46.5h125q-57 -174 -242 -174q-121 0 -192.5 75.5t-71.5 196.5q0 118 73.5 195.5t190.5 77.5q126 0 192.5 -90t58.5 -217zM171 314h231q-10 56 -36.5 83t-76.5 27q-60 0 -88 -35t-30 -75zM264 581l-154 142h157l96 -142
h-99z" />
    <glyph glyph-name="eacute" unicode="&#xe9;" horiz-adv-x="574" 
d="M544 224h-373q6 -131 127 -131q41 0 73 20.5t39 46.5h125q-57 -174 -242 -174q-121 0 -192.5 75.5t-71.5 196.5q0 118 73.5 195.5t190.5 77.5q126 0 192.5 -90t58.5 -217zM171 314h231q-10 56 -36.5 83t-76.5 27q-60 0 -88 -35t-30 -75zM465 723l-154 -142h-99l96 142
h157z" />
    <glyph glyph-name="ecircumflex" unicode="&#xea;" horiz-adv-x="574" 
d="M544 224h-373q6 -131 127 -131q41 0 73 20.5t39 46.5h125q-57 -174 -242 -174q-121 0 -192.5 75.5t-71.5 196.5q0 118 73.5 195.5t190.5 77.5q126 0 192.5 -90t58.5 -217zM171 314h231q-10 56 -36.5 83t-76.5 27q-60 0 -88 -35t-30 -75zM112 581l111 142h130l110 -142
h-117l-62 81l-64 -81h-108z" />
    <glyph glyph-name="edieresis" unicode="&#xeb;" horiz-adv-x="574" 
d="M544 224h-373q6 -131 127 -131q41 0 73 20.5t39 46.5h125q-57 -174 -242 -174q-121 0 -192.5 75.5t-71.5 196.5q0 118 73.5 195.5t190.5 77.5q126 0 192.5 -90t58.5 -217zM171 314h231q-10 56 -36.5 83t-76.5 27q-60 0 -88 -35t-30 -75zM323 597v117h135v-117h-135z
M117 597v117h135v-117h-135z" />
    <glyph glyph-name="igrave" unicode="&#xec;" horiz-adv-x="258" 
d="M58 0v517h142v-517h-142zM106 581l-154 142h157l96 -142h-99z" />
    <glyph glyph-name="iacute" unicode="&#xed;" horiz-adv-x="258" 
d="M58 0v517h142v-517h-142zM307 723l-154 -142h-99l96 142h157z" />
    <glyph glyph-name="icircumflex" unicode="&#xee;" horiz-adv-x="258" 
d="M58 0v517h142v-517h-142zM-46 581l111 142h130l110 -142h-117l-62 81l-64 -81h-108z" />
    <glyph glyph-name="idieresis" unicode="&#xef;" horiz-adv-x="258" 
d="M58 0v517h142v-517h-142zM165 597v117h135v-117h-135zM-41 597v117h135v-117h-135z" />
    <glyph glyph-name="eth" unicode="&#xf0;" horiz-adv-x="611" 
d="M305 93q67 0 96.5 47t29.5 118q0 63 -31.5 108t-95.5 45t-94 -45t-30 -108q0 -71 29.5 -118t95.5 -47zM133 593l107 54q-44 31 -84 50l92 69q54 -30 99 -66l123 62l52 -59l-114 -57q169 -163 165 -373q0 -125 -73.5 -206t-194.5 -81t-194 72.5t-73 188.5q0 65 23 122
t77 97t130 40q78 0 135 -40h2q-26 60 -102 127l-112 -56z" />
    <glyph glyph-name="ntilde" unicode="&#xf1;" horiz-adv-x="593" 
d="M54 0v517h135v-72h3q26 42 68.5 64t89.5 22q107 0 148 -54t41 -159v-318h-142v292q0 65 -21 96t-70 31q-58 0 -84 -35t-26 -113v-271h-142zM411 714h69q-16 -52 -31 -74q-28 -40 -81 -40q-29 0 -82 17q-47 17 -70 17q-19 0 -28 -10.5t-14 -31.5h-61q12 55 39.5 88.5
t86.5 33.5q19 0 64 -17q42 -18 66 -18q21 0 32 10t10 25z" />
    <glyph glyph-name="ograve" unicode="&#xf2;" horiz-adv-x="611" 
d="M38 258q0 124 73 198.5t194 74.5q122 0 195 -74.5t73 -198.5q0 -123 -73 -197.5t-195 -74.5q-121 0 -194 74.5t-73 197.5zM180 258q0 -71 29.5 -118t95.5 -47q67 0 96.5 47t29.5 118t-29.5 118.5t-96.5 47.5q-66 0 -95.5 -47.5t-29.5 -118.5zM282 581l-154 142h157
l96 -142h-99z" />
    <glyph glyph-name="oacute" unicode="&#xf3;" horiz-adv-x="611" 
d="M38 258q0 124 73 198.5t194 74.5q122 0 195 -74.5t73 -198.5q0 -123 -73 -197.5t-195 -74.5q-121 0 -194 74.5t-73 197.5zM180 258q0 -71 29.5 -118t95.5 -47q67 0 96.5 47t29.5 118t-29.5 118.5t-96.5 47.5q-66 0 -95.5 -47.5t-29.5 -118.5zM483 723l-154 -142h-99
l96 142h157z" />
    <glyph glyph-name="ocircumflex" unicode="&#xf4;" horiz-adv-x="611" 
d="M38 258q0 124 73 198.5t194 74.5q122 0 195 -74.5t73 -198.5q0 -123 -73 -197.5t-195 -74.5q-121 0 -194 74.5t-73 197.5zM180 258q0 -71 29.5 -118t95.5 -47q67 0 96.5 47t29.5 118t-29.5 118.5t-96.5 47.5q-66 0 -95.5 -47.5t-29.5 -118.5zM130 581l111 142h130
l110 -142h-117l-62 81l-64 -81h-108z" />
    <glyph glyph-name="otilde" unicode="&#xf5;" horiz-adv-x="611" 
d="M38 258q0 124 73 198.5t194 74.5q122 0 195 -74.5t73 -198.5q0 -123 -73 -197.5t-195 -74.5q-121 0 -194 74.5t-73 197.5zM180 258q0 -71 29.5 -118t95.5 -47q67 0 96.5 47t29.5 118t-29.5 118.5t-96.5 47.5q-66 0 -95.5 -47.5t-29.5 -118.5zM420 714h69q-16 -52 -31 -74
q-28 -40 -81 -40q-29 0 -82 17q-47 17 -70 17q-19 0 -28 -10.5t-14 -31.5h-61q12 55 39.5 88.5t86.5 33.5q19 0 64 -17q42 -18 66 -18q21 0 32 10t10 25z" />
    <glyph glyph-name="odieresis" unicode="&#xf6;" horiz-adv-x="611" 
d="M38 258q0 124 73 198.5t194 74.5q122 0 195 -74.5t73 -198.5q0 -123 -73 -197.5t-195 -74.5q-121 0 -194 74.5t-73 197.5zM180 258q0 -71 29.5 -118t95.5 -47q67 0 96.5 47t29.5 118t-29.5 118.5t-96.5 47.5q-66 0 -95.5 -47.5t-29.5 -118.5zM341 597v117h135v-117h-135z
M135 597v117h135v-117h-135z" />
    <glyph glyph-name="divide" unicode="&#xf7;" horiz-adv-x="600" 
d="M48 199v107h505v-107h-505zM216 460q0 35 25 60t60 25q34 0 59 -25.5t25 -59.5q0 -32 -25 -58t-58 -26q-35 0 -60.5 25t-25.5 59zM216 45q0 35 25 59.5t60 24.5q34 0 59 -25t25 -59q0 -32 -25 -58.5t-58 -26.5q-35 0 -60.5 25t-25.5 60z" />
    <glyph glyph-name="oslash" unicode="&#xf8;" horiz-adv-x="611" 
d="M195 172l193 220q-30 32 -83 32q-66 0 -95.5 -47.5t-29.5 -118.5q0 -52 15 -86zM415 349l-195 -222q31 -34 85 -34q67 0 96.5 47t29.5 118q0 52 -16 91zM44 1l60 68q-66 72 -66 189q0 124 73 198.5t194 74.5q95 0 163 -48l53 61l37 -32l-54 -61q69 -74 69 -193
q0 -123 -73 -197.5t-195 -74.5q-97 0 -165 50l-59 -67z" />
    <glyph glyph-name="ugrave" unicode="&#xf9;" horiz-adv-x="593" 
d="M539 517v-517h-135v72h-3q-26 -42 -68.5 -64t-89.5 -22q-107 0 -148 54t-41 159v318h142v-292q0 -65 21 -96t70 -31q58 0 84 35t26 113v271h142zM273 581l-154 142h157l96 -142h-99z" />
    <glyph glyph-name="uacute" unicode="&#xfa;" horiz-adv-x="593" 
d="M539 517v-517h-135v72h-3q-26 -42 -68.5 -64t-89.5 -22q-107 0 -148 54t-41 159v318h142v-292q0 -65 21 -96t70 -31q58 0 84 35t26 113v271h142zM474 723l-154 -142h-99l96 142h157z" />
    <glyph glyph-name="ucircumflex" unicode="&#xfb;" horiz-adv-x="593" 
d="M539 517v-517h-135v72h-3q-26 -42 -68.5 -64t-89.5 -22q-107 0 -148 54t-41 159v318h142v-292q0 -65 21 -96t70 -31q58 0 84 35t26 113v271h142zM121 581l111 142h130l110 -142h-117l-62 81l-64 -81h-108z" />
    <glyph glyph-name="udieresis" unicode="&#xfc;" horiz-adv-x="593" 
d="M539 517v-517h-135v72h-3q-26 -42 -68.5 -64t-89.5 -22q-107 0 -148 54t-41 159v318h142v-292q0 -65 21 -96t70 -31q58 0 84 35t26 113v271h142zM332 597v117h135v-117h-135zM126 597v117h135v-117h-135z" />
    <glyph glyph-name="yacute" unicode="&#xfd;" horiz-adv-x="519" 
d="M525 517l-216 -582q-23 -63 -64 -90t-114 -27q-39 0 -87 5v117q73 -5 83 -5q35 4 48.5 34t0.5 63l-182 485h152l117 -354h2l113 354h147zM437 723l-154 -142h-99l96 142h157z" />
    <glyph glyph-name="thorn" unicode="&#xfe;" horiz-adv-x="611" 
d="M54 -182v896h142v-263h2q49 80 147 80q115 0 175 -79.5t60 -198.5q0 -111 -59.5 -189t-167.5 -78q-47 0 -88.5 20t-66.5 58h-2v-246h-142zM438 257q0 70 -30.5 118.5t-93.5 48.5q-65 0 -94 -48t-29 -119q0 -70 30 -117t94 -47q65 0 94 46.5t29 117.5z" />
    <glyph glyph-name="ydieresis" unicode="&#xff;" horiz-adv-x="519" 
d="M525 517l-216 -582q-23 -63 -64 -90t-114 -27q-39 0 -87 5v117q73 -5 83 -5q35 4 48.5 34t0.5 63l-182 485h152l117 -354h2l113 354h147zM295 597v117h135v-117h-135zM89 597v117h135v-117h-135z" />
    <glyph glyph-name="dotlessi" unicode="&#x131;" horiz-adv-x="258" 
d="M58 0v517h142v-517h-142z" />
    <glyph glyph-name="Lslash" unicode="&#x141;" horiz-adv-x="593" 
d="M69 0v214l-80 -56v112l80 56v388h157v-278l211 148v-112l-211 -148v-192h348v-132h-505z" />
    <glyph glyph-name="lslash" unicode="&#x142;" horiz-adv-x="258" 
d="M58 0v286l-67 -53v102l67 53v326h142v-214l67 53v-102l-67 -53v-398h-142z" />
    <glyph glyph-name="OE" unicode="&#x152;" horiz-adv-x="1093" 
d="M544 0v54h-2q-31 -34 -77.5 -52.5t-94.5 -18.5q-153 0 -242.5 107.5t-89.5 262.5q0 156 91.5 267t243.5 111q116 0 169 -68h2v51h500v-132h-354v-153h324v-122h-324v-175h361v-132h-507zM538 278v170q0 67 -43.5 109t-110.5 42q-50 0 -88 -21t-59 -56.5t-31.5 -77.5
t-10.5 -89q0 -99 46.5 -169.5t139.5 -70.5q72 0 114.5 45t42.5 118z" />
    <glyph glyph-name="oe" unicode="&#x153;" horiz-adv-x="926" 
d="M528 314h227q-2 51 -31 80.5t-84 29.5q-51 0 -80.5 -31t-31.5 -79zM290 93q114 0 114 167q0 164 -111 164q-60 0 -86.5 -49.5t-26.5 -118.5q0 -64 26 -113.5t84 -49.5zM897 224h-369q0 -58 31.5 -94.5t91.5 -36.5q75 0 104 71h138q-25 -84 -89.5 -131t-152.5 -47
q-132 0 -187 88q-25 -44 -75.5 -66t-107.5 -22q-115 0 -179 79t-64 196q0 116 70 193t184 77q127 0 178 -82q26 38 75 60t98 22q129 0 191.5 -86t62.5 -221z" />
    <glyph glyph-name="Scaron" unicode="&#x160;" horiz-adv-x="649" 
d="M24 237h152q0 -67 44.5 -99.5t113.5 -32.5q33 0 61.5 6.5t53 27.5t24.5 55q0 16 -5.5 29t-18.5 23.5t-25.5 17.5t-35.5 14l-38.5 11.5t-44.5 11.5t-44 11q-47 12 -79 25t-66 36t-51 58.5t-17 83.5q0 69 40.5 120t99.5 73.5t127 22.5q79 0 141 -22t103.5 -75.5
t41.5 -132.5h-152q-6 108 -141 108q-43 0 -75.5 -20t-32.5 -61q0 -39 34 -55t179 -53q95 -24 141 -59q71 -55 71 -149q0 -102 -78 -165.5t-219 -63.5q-129 0 -217 65t-87 189zM500 920l-110 -142h-130l-111 142h112l64 -81l65 81h110z" />
    <glyph glyph-name="scaron" unicode="&#x161;" horiz-adv-x="537" 
d="M29 168h135q1 -44 32 -65.5t77 -21.5q37 0 65 16t28 50q0 16 -9.5 27.5t-33.5 21t-48.5 15.5t-69.5 16q-36 8 -61 17t-50.5 24.5t-39 39.5t-13.5 57q0 47 19 81t52.5 52t71 25.5t82.5 7.5q95 0 157.5 -38.5t70.5 -126.5h-135q-5 70 -97 70q-79 0 -79 -48q0 -11 4.5 -19.5
t14 -15t19 -11t26.5 -9t29.5 -7.5t33.5 -7.5l34 -7.5q77 -18 120.5 -49t43.5 -96q0 -94 -67.5 -137t-168.5 -43t-170 43.5t-73 138.5zM444 723l-110 -142h-130l-111 142h112l64 -81l65 81h110z" />
    <glyph glyph-name="Ydieresis" unicode="&#x178;" horiz-adv-x="667" 
d="M254 0v278l-263 436h177l167 -282l166 282h175l-265 -440v-274h-157zM369 794v117h135v-117h-135zM163 794v117h135v-117h-135z" />
    <glyph glyph-name="Zcaron" unicode="&#x17d;" horiz-adv-x="648" 
d="M23 0v124l383 458h-353v132h562v-124l-383 -458h393v-132h-602zM500 920l-110 -142h-130l-111 142h112l64 -81l65 81h110z" />
    <glyph glyph-name="zcaron" unicode="&#x17e;" horiz-adv-x="519" 
d="M22 0v107l269 303h-249v107h436v-107l-269 -303h288v-107h-475zM435 723l-110 -142h-130l-111 142h112l64 -81l65 81h110z" />
    <glyph glyph-name="florin" unicode="&#x192;" 
d="M-5 -167l19 107q20 -3 40 -3q36 -1 50.5 16t21.5 55l63 329h-92l18 95h91l24 127q18 95 63.5 133.5t142.5 38.5q40 0 75 -7l-18 -107q-17 7 -40 7q-38 0 -54 -14t-22 -48l-25 -130h98l-16 -95h-100l-56 -310q-20 -108 -62 -152.5t-147 -44.5q-32 0 -74 3z" />
    <glyph glyph-name="circumflex" unicode="&#x2c6;" horiz-adv-x="259" 
d="M-46 581l111 142h130l110 -142h-117l-62 81l-64 -81h-108z" />
    <glyph glyph-name="caron" unicode="&#x2c7;" horiz-adv-x="259" 
d="M305 723l-110 -142h-130l-111 142h112l64 -81l65 81h110z" />
    <glyph glyph-name="uni02C9" unicode="&#x2c9;" horiz-adv-x="259" 
d="M-57 616v75h373v-75h-373z" />
    <glyph glyph-name="breve" unicode="&#x2d8;" horiz-adv-x="259" 
d="M-39 727h65q5 -37 34.5 -54t64.5 -17q93 0 110 71h63q-19 -146 -178 -146q-147 0 -159 146z" />
    <glyph glyph-name="dotaccent" unicode="&#x2d9;" horiz-adv-x="259" 
d="M62 597v117h135v-117h-135z" />
    <glyph glyph-name="ring" unicode="&#x2da;" horiz-adv-x="259" 
d="M66 656q0 -30 17.5 -50t45.5 -20t46 20t18 50t-18 50t-46 20t-45.5 -20t-17.5 -50zM7 656q0 50 36 86t86 36q51 0 87 -36t36 -86t-36 -86t-87 -36q-50 0 -86 36t-36 86z" />
    <glyph glyph-name="ogonek" unicode="&#x2db;" horiz-adv-x="259" 
d="M202 -128l48 -22q-53 -68 -134 -68q-14 0 -28 2.5t-34 10.5t-32.5 28t-12.5 49q0 63 114 131h65q-83 -75 -83 -127q0 -15 11.5 -24.5t27.5 -9.5q36 0 58 30z" />
    <glyph glyph-name="tilde" unicode="&#x2dc;" horiz-adv-x="259" 
d="M244 714h69q-16 -52 -31 -74q-28 -40 -81 -40q-29 0 -82 17q-47 17 -70 17q-19 0 -28 -10.5t-14 -31.5h-61q12 55 39.5 88.5t86.5 33.5q19 0 64 -17q42 -18 66 -18q21 0 32 10t10 25z" />
    <glyph glyph-name="hungarumlaut" unicode="&#x2dd;" horiz-adv-x="259" 
d="M192 723l-149 -142h-99l91 142h157zM399 723l-149 -142h-99l91 142h157z" />
    <glyph glyph-name="uni03A9" unicode="&#x3a9;" horiz-adv-x="704" 
d="M173 101v3q-52 50 -87 122.5t-35 161.5q0 136 85 230t218 94q70 0 127.5 -28t93.5 -74t55.5 -102t19.5 -113q0 -91 -35.5 -167t-87.5 -124v-3h137v-101h-261v75q52 35 86.5 108.5t34.5 184.5q0 100 -45.5 170t-124.5 70t-127.5 -69t-48.5 -176q0 -103 35 -180t87 -108
v-75h-263v101h136z" />
    <glyph glyph-name="uni03BC" unicode="&#x3bc;" horiz-adv-x="593" 
d="M539 517v-517h-135v72h-3q-25 -40 -63.5 -63t-66.5 -23q-53 0 -75 24v-192h-142v699h142v-292q0 -65 21 -96t70 -31q58 0 84 35t26 113v271h142z" />
    <glyph glyph-name="pi" unicode="&#x3c0;" horiz-adv-x="598" 
d="M574 420h-70v-271q0 -91 13 -149h-121q-17 30 -17 143v277h-139q-4 -95 -22 -221.5t-42 -198.5h-122q25 86 43 210t20 210q-68 0 -98 -10l-14 84q43 33 162 33h417z" />
    <glyph glyph-name="endash" unicode="&#x2013;" horiz-adv-x="500" 
d="M0 212v122h500v-122h-500z" />
    <glyph glyph-name="emdash" unicode="&#x2014;" horiz-adv-x="1000" 
d="M130 212v122h740v-122h-740z" />
    <glyph glyph-name="quoteleft" unicode="&#x2018;" horiz-adv-x="278" 
d="M210 547v-154h-142v153q-2 66 38.5 113t103.5 55v-66q-66 -22 -66 -101h66z" />
    <glyph glyph-name="quoteright" unicode="&#x2019;" horiz-adv-x="278" 
d="M68 560v154h142v-153q2 -66 -38.5 -113t-103.5 -55v66q66 22 66 101h-66z" />
    <glyph glyph-name="quotesinglbase" unicode="&#x201a;" horiz-adv-x="278" 
d="M68 0v154h142v-153q2 -66 -38.5 -113t-103.5 -55v66q66 22 66 101h-66z" />
    <glyph glyph-name="quotedblleft" unicode="&#x201c;" horiz-adv-x="463" 
d="M409 547v-154h-142v153q-2 66 38.5 113t103.5 55v-66q-66 -22 -66 -101h66zM196 547v-154h-142v153q-2 66 38.5 113t103.5 55v-66q-66 -22 -66 -101h66z" />
    <glyph glyph-name="quotedblright" unicode="&#x201d;" horiz-adv-x="463" 
d="M267 560v154h142v-153q2 -66 -38.5 -113t-103.5 -55v66q66 22 66 101h-66zM54 560v154h142v-153q2 -66 -38.5 -113t-103.5 -55v66q66 22 66 101h-66z" />
    <glyph glyph-name="quotedblbase" unicode="&#x201e;" horiz-adv-x="463" 
d="M267 0v154h142v-153q2 -66 -38.5 -113t-103.5 -55v66q66 22 66 101h-66zM54 0v154h142v-153q2 -66 -38.5 -113t-103.5 -55v66q66 22 66 101h-66z" />
    <glyph glyph-name="dagger" unicode="&#x2020;" 
d="M210 -166v566h-186v117h186v197h135v-197h187v-117h-187v-566h-135z" />
    <glyph glyph-name="daggerdbl" unicode="&#x2021;" 
d="M210 -166v193h-186v117h186v256h-186v117h186v197h135v-197h187v-117h-187v-256h187v-117h-187v-193h-135z" />
    <glyph glyph-name="bullet" unicode="&#x2022;" horiz-adv-x="501" 
d="M72 357q0 74 52 126t126 52t126.5 -52t52.5 -126t-52.5 -126.5t-126.5 -52.5t-126 52.5t-52 126.5z" />
    <glyph glyph-name="ellipsis" unicode="&#x2026;" horiz-adv-x="1000" 
d="M88 0v154h157v-154h-157zM421 0v154h157v-154h-157zM754 0v154h157v-154h-157z" />
    <glyph glyph-name="perthousand" unicode="&#x2030;" horiz-adv-x="1147" 
d="M530 172q0 -27 1.5 -44t6.5 -37t17 -30t31 -10q14 0 24 4t16 13.5t9.5 17.5t5 23.5t1.5 23.5v25q0 25 -1 39.5t-6 32.5t-16.5 26.5t-30.5 8.5q-20 0 -32.5 -8.5t-17.5 -24.5t-6.5 -28.5t-1.5 -31.5zM440 155q0 76 36.5 125.5t110.5 49.5q145 0 145 -174q0 -77 -36 -123.5
t-110 -46.5q-69 0 -107.5 46.5t-38.5 122.5zM786 155q0 76 36.5 125.5t110.5 49.5q145 0 145 -174q0 -77 -36 -123.5t-110 -46.5q-69 0 -107.5 46.5t-38.5 122.5zM876 172q0 -27 1.5 -44t6.5 -37t17 -30t31 -10q14 0 24 4t16 13.5t9.5 17.5t5 23.5t1.5 23.5v25q0 25 -1 39.5
t-6 32.5t-16.5 26.5t-30.5 8.5q-20 0 -32.5 -8.5t-17.5 -24.5t-6.5 -28.5t-1.5 -31.5zM69 539q0 76 36.5 125.5t110.5 49.5q145 0 145 -174q0 -77 -36 -123.5t-110 -46.5q-69 0 -107.5 46.5t-38.5 122.5zM159 556q0 -27 1.5 -44t6.5 -37t17 -30t31 -10q14 0 24 4t16 13.5
t9.5 17.5t5 23.5t1.5 23.5v25q0 25 -1 39.5t-6 32.5t-16.5 26.5t-30.5 8.5q-20 0 -32.5 -8.5t-17.5 -24.5t-6.5 -28.5t-1.5 -31.5zM150 -22l414 744h85l-412 -744h-87z" />
    <glyph glyph-name="guilsinglleft" unicode="&#x2039;" horiz-adv-x="241" 
d="M199 80l-157 125v135l157 123v-120l-90 -71l90 -72v-120z" />
    <glyph glyph-name="guilsinglright" unicode="&#x203a;" horiz-adv-x="241" 
d="M42 463l157 -123v-135l-157 -125v120l90 72l-90 71v120z" />
    <glyph glyph-name="fraction" unicode="&#x2044;" horiz-adv-x="167" 
d="M-166 -22l414 744h85l-412 -744h-87z" />
    <glyph glyph-name="Euro" unicode="&#x20ac;" 
d="M576 672l-61 -125q-71 45 -131 45q-105 0 -140 -137h244l-31 -72h-224l-1 -42h213l-31 -72h-174q32 -158 148 -158q74 0 154 63l-1 -151q-68 -40 -154 -40q-127 0 -203 82q-70 74 -91 204h-77l31 72h40q0 35 1 42h-73l31 72h51q24 121 99 191q79 76 198 76q85 0 182 -50z
" />
    <glyph glyph-name="afii61289" unicode="&#x2113;" horiz-adv-x="510" 
d="M441 181l51 -52q-71 -139 -206 -139q-85 0 -128.5 46t-50.5 120q0 7 -1 11l-51 -41l-32 67q77 64 82 69v254q0 127 50 190.5t128 63.5q69 0 103.5 -49.5t34.5 -127.5q0 -158 -196 -349l1 -43q1 -54 26 -83t63 -29q71 0 126 92zM225 518v-159q118 135 118 238q0 84 -55 84
q-26 0 -44.5 -38t-18.5 -125z" />
    <glyph glyph-name="trademark" unicode="&#x2122;" horiz-adv-x="1000" 
d="M928 714v-412h-96v292h-2l-106 -292h-69l-106 292h-2v-292h-96v412h136l103 -271l103 271h135zM398 714v-80h-117v-332h-102v332h-117v80h336z" />
    <glyph glyph-name="Omega" unicode="&#x2126;" horiz-adv-x="704" 
d="M173 101v3q-52 50 -87 122.5t-35 161.5q0 136 85 230t218 94q70 0 127.5 -28t93.5 -74t55.5 -102t19.5 -113q0 -91 -35.5 -167t-87.5 -124v-3h137v-101h-261v75q52 35 86.5 108.5t34.5 184.5q0 100 -45.5 170t-124.5 70t-127.5 -69t-48.5 -176q0 -103 35 -180t87 -108
v-75h-263v101h136z" />
    <glyph glyph-name="estimated" unicode="&#x212e;" horiz-adv-x="878" 
d="M843 340h-655q-5 0 -5 -4v-199q0 -12 8 -22q105 -108 248 -108q156 0 261 121h58q-55 -65 -139.5 -103t-180.5 -38q-167 0 -285.5 106t-118.5 257t118.5 257.5t285.5 106.5q168 0 286.5 -106.5t118.5 -257.5v-10zM694 366v199q0 14 -10 24q-105 103 -245 103
q-142 0 -247 -107q-9 -9 -9 -24v-195q0 -7 5 -7h502q4 0 4 7z" />
    <glyph glyph-name="partialdiff" unicode="&#x2202;" horiz-adv-x="572" 
d="M103 639l-35 94q77 57 182 57q116 0 194.5 -100t78.5 -282q0 -190 -74 -303.5t-205 -113.5q-50 0 -90.5 21.5t-65 56.5t-37.5 76t-13 83q0 118 62 190.5t153 72.5q54 0 92.5 -26t54.5 -54h1q1 8 1 34q0 99 -47 170.5t-121 71.5t-131 -48zM256 95h1q52 0 88 64t44 147
q-8 30 -38.5 57.5t-72.5 27.5q-51 0 -84 -49.5t-33 -117.5q0 -55 26 -92t69 -37z" />
    <glyph glyph-name="Delta" unicode="&#x2206;" horiz-adv-x="654" 
d="M27 0v73l229 644h148l222 -642v-75h-599zM155 101h337l-109 298q-6 21 -28.5 88.5t-28.5 92.5h-3q-4 -19 -24.5 -80.5t-27.5 -85.5z" />
    <glyph glyph-name="product" unicode="&#x220f;" horiz-adv-x="718" 
d="M692 588h-101v-685h-123v685h-219v-685h-123v685h-101v113h667v-113z" />
    <glyph glyph-name="summation" unicode="&#x2211;" 
d="M536 -97h-513v80l242 320l-233 311v87h488v-105h-321v-4l206 -269l-229 -301v-3h360v-116z" />
    <glyph glyph-name="minus" unicode="&#x2212;" horiz-adv-x="600" 
d="M48 199v107h505v-107h-505z" />
    <glyph glyph-name="uni2215" unicode="&#x2215;" horiz-adv-x="167" 
d="M-166 -22l414 744h85l-412 -744h-87z" />
    <glyph glyph-name="uni2219" unicode="&#x2219;" horiz-adv-x="278" 
d="M55 287q0 35 25 60t60 25q34 0 59 -25.5t25 -59.5q0 -32 -25 -58t-58 -26q-35 0 -60.5 25t-25.5 59z" />
    <glyph glyph-name="radical" unicode="&#x221a;" horiz-adv-x="590" 
d="M598 841l-224 -982h-99l-149 441l-74 -29l-20 70l168 68l104 -321l11 -46.5t9 -40.5l2 -1q8 56 15 94l171 747h86z" />
    <glyph glyph-name="infinity" unicode="&#x221e;" horiz-adv-x="778" 
d="M729 290v-1q0 -78 -47.5 -125t-112.5 -47q-46 0 -88.5 25.5t-90.5 87.5q-46 -55 -87.5 -84t-97.5 -29q-64 0 -110.5 47.5t-46.5 119.5q0 75 47 123t118 48q94 0 180 -111q51 57 76 75q49 37 106 36q66 0 110 -45.5t44 -119.5zM214 185h1q26 0 53 16.5t42.5 32.5t41.5 47
q-22 30 -31.5 42t-29 31.5t-39 27t-42.5 7.5q-42 0 -67 -30t-25 -75q0 -41 27.5 -70t68.5 -29zM568 389h-1q-17 0 -33.5 -5.5t-34 -21l-25 -22t-26.5 -29.5l-20 -23q48 -59 77.5 -81t65.5 -22q40 0 64 31t24 68q0 46 -25.5 75.5t-65.5 29.5z" />
    <glyph glyph-name="integral" unicode="&#x222b;" horiz-adv-x="394" 
d="M372 855l-14 -85q-18 8 -35 8q-32 0 -50 -25q-27 -36 -27 -170q0 -79 7 -235t7 -248q0 -137 -36 -201q-37 -72 -127 -72q-47 0 -77 16l16 89q22 -10 43 -10q29 0 44 20q27 38 27 157q0 92 -7.5 252t-7.5 244q0 88 14 140t46 86q40 46 116 46q37 0 61 -12z" />
    <glyph glyph-name="approxequal" unicode="&#x2248;" horiz-adv-x="549" 
d="M465 452l44 -40q-53 -103 -135 -103q-48 0 -112 40q-53 33 -86 33q-21 0 -39 -12t-28 -24.5t-26 -35.5l-45 41q23 45 61.5 73.5t82.5 28.5q12 0 23.5 -2t20 -4.5t19 -7t15.5 -7.5l15 -9t13 -7l16.5 -10t15.5 -9l13 -6.5t14 -6t12.5 -3t15.5 -1.5q26 0 46.5 18t43.5 54z
M465 266l44 -40q-54 -103 -135 -103q-44 0 -112 40q-54 34 -86 34q-21 0 -39.5 -12t-28 -24.5t-25.5 -36.5l-45 41q23 45 61.5 73.5t82.5 28.5q12 0 24 -2t19.5 -4t19 -7.5t15 -7t16.5 -8.5l12 -7l17 -10.5t18 -10.5t16 -7.5t18.5 -6.5t17.5 -2q27 0 46.5 17.5t43.5 54.5z
" />
    <glyph glyph-name="notequal" unicode="&#x2260;" horiz-adv-x="549" 
d="M403 514l-39 -89h136v-72h-163l-60 -136h223v-72h-250l-50 -114l-57 23l40 91h-135v72h163l59 136h-222v72h249l49 112z" />
    <glyph glyph-name="lessequal" unicode="&#x2264;" horiz-adv-x="549" 
d="M498 100l-445 223v78l445 223v-84l-373 -176v-3l373 -177v-84zM502 -12h-453v74h453v-74z" />
    <glyph glyph-name="greaterequal" unicode="&#x2265;" horiz-adv-x="549" 
d="M55 624l445 -223v-78l-445 -223v84l372 177v2l-372 177v84zM500 -12h-450v74h450v-74z" />
    <glyph glyph-name="lozenge" unicode="&#x25ca;" horiz-adv-x="590" 
d="M540 350l-198 -399h-100l-192 399l198 400h99zM430 347l-114 241q-14 37 -19 60h-3q-11 -41 -19 -60l-115 -235l115 -245q12 -35 17 -57h4q11 40 18 56z" />
    <hkern u1="T" u2="&#x161;" k="28" />
    <hkern u1="T" u2="&#xfc;" k="46" />
    <hkern u1="T" u2="&#xf6;" k="56" />
    <hkern u1="T" u2="&#xf2;" k="56" />
    <hkern u1="T" u2="&#xeb;" k="56" />
    <hkern u1="T" u2="&#xea;" k="83" />
    <hkern u1="T" u2="&#xe8;" k="83" />
    <hkern u1="T" u2="&#xe5;" k="56" />
    <hkern u1="T" u2="&#xe4;" k="28" />
    <hkern u1="T" u2="&#xe3;" k="56" />
    <hkern u1="T" u2="&#xe2;" k="56" />
    <hkern u1="T" u2="&#xe0;" k="56" />
    <hkern u1="V" u2="&#xf6;" k="28" />
    <hkern u1="V" u2="&#xf4;" k="41" />
    <hkern u1="V" u2="&#xee;" k="-4" />
    <hkern u1="V" u2="&#xeb;" k="28" />
    <hkern u1="V" u2="&#xea;" k="28" />
    <hkern u1="V" u2="&#xe8;" k="28" />
    <hkern u1="V" u2="&#xe5;" k="28" />
    <hkern u1="V" u2="&#xe4;" k="28" />
    <hkern u1="V" u2="&#xe3;" k="28" />
    <hkern u1="V" u2="&#xe2;" k="28" />
    <hkern u1="V" u2="&#xe0;" k="28" />
    <hkern u1="W" u2="&#xfc;" k="14" />
    <hkern u1="W" u2="&#xf6;" k="28" />
    <hkern u1="W" u2="&#xea;" k="28" />
    <hkern u1="W" u2="&#xe4;" k="28" />
    <hkern u1="Y" u2="&#xfc;" k="56" />
    <hkern u1="Y" u2="&#xf6;" k="69" />
    <hkern u1="&#x2018;" u2="&#x2018;" k="65" />
    <hkern u1="&#x2019;" u2="&#x2019;" k="65" />
    <hkern g1="f,fi,fl"
	g2="s,scaron"
	k="-18" />
    <hkern g1="f,fi,fl"
	g2="u,ugrave,uacute,ucircumflex,udieresis"
	k="18" />
    <hkern g1="F"
	g2="Y,Yacute,Ydieresis"
	k="-18" />
    <hkern g1="F"
	g2="quoteright"
	k="18" />
    <hkern g1="L,Lslash"
	g2="u,ugrave,uacute,ucircumflex,udieresis"
	k="55" />
    <hkern g1="L,Lslash"
	g2="colon"
	k="129" />
    <hkern g1="L,Lslash"
	g2="semicolon"
	k="129" />
    <hkern g1="P"
	g2="quoteright"
	k="55" />
    <hkern g1="P"
	g2="f,germandbls,fi,fl"
	k="129" />
    <hkern g1="P"
	g2="A,Agrave,Aacute,Acircumflex,Atilde,Adieresis,Aring,AE"
	k="129" />
    <hkern g1="P"
	g2="t"
	k="111" />
    <hkern g1="r"
	g2="c,ccedilla"
	k="111" />
    <hkern g1="r"
	g2="e,egrave,eacute,ecircumflex,edieresis"
	k="92" />
    <hkern g1="r"
	g2="o,ograve,oacute,ocircumflex,otilde,odieresis,oslash,oe"
	k="55" />
    <hkern g1="r"
	g2="q"
	k="37" />
    <hkern g1="r"
	g2="hyphen"
	k="111" />
    <hkern g1="r"
	g2="a,agrave,aacute,acircumflex,atilde,adieresis,aring,ae"
	k="74" />
    <hkern g1="R"
	g2="v"
	k="55" />
    <hkern g1="R"
	g2="V"
	k="37" />
    <hkern g1="R"
	g2="w"
	k="111" />
    <hkern g1="R"
	g2="W"
	k="74" />
    <hkern g1="T"
	g2="r"
	k="74" />
    <hkern g1="T"
	g2="s,scaron"
	k="129" />
    <hkern g1="T"
	g2="u,ugrave,uacute,ucircumflex,udieresis"
	k="129" />
    <hkern g1="v"
	g2="y,yacute,ydieresis"
	k="74" />
    <hkern g1="v"
	g2="Y,Yacute,Ydieresis"
	k="129" />
    <hkern g1="v"
	g2="quoteright"
	k="129" />
    <hkern g1="V"
	g2="r"
	k="92" />
    <hkern g1="V"
	g2="s,scaron"
	k="92" />
    <hkern g1="V"
	g2="u,ugrave,uacute,ucircumflex,udieresis"
	k="18" />
    <hkern g1="V"
	g2="colon"
	k="18" />
    <hkern g1="V"
	g2="semicolon"
	k="18" />
    <hkern g1="V"
	g2="i,igrave,iacute,icircumflex,idieresis"
	k="-18" />
    <hkern g1="V"
	g2="p"
	k="18" />
    <hkern g1="V"
	g2="t"
	k="18" />
    <hkern g1="w"
	g2="y,yacute,ydieresis"
	k="92" />
    <hkern g1="w"
	g2="Y,Yacute,Ydieresis"
	k="92" />
    <hkern g1="w"
	g2="quoteright"
	k="18" />
    <hkern g1="w"
	g2="f,germandbls,fi,fl"
	k="18" />
    <hkern g1="w"
	g2="A,Agrave,Aacute,Acircumflex,Atilde,Adieresis,Aring,AE"
	k="18" />
    <hkern g1="w"
	g2="comma"
	k="-18" />
    <hkern g1="w"
	g2="period"
	k="18" />
    <hkern g1="w"
	g2="c,ccedilla"
	k="18" />
    <hkern g1="w"
	g2="d,dotlessi"
	k="55" />
    <hkern g1="w"
	g2="semicolon"
	k="18" />
    <hkern g1="w"
	g2="p"
	k="-6" />
    <hkern g1="W"
	g2="A,Agrave,Aacute,Acircumflex,Atilde,Adieresis,Aring,AE"
	k="18" />
    <hkern g1="W"
	g2="period"
	k="-6" />
    <hkern g1="W"
	g2="d,dotlessi"
	k="-6" />
    <hkern g1="W"
	g2="n,ntilde"
	k="37" />
    <hkern g1="y,yacute,ydieresis"
	g2="T"
	k="37" />
    <hkern g1="y,yacute,ydieresis"
	g2="p"
	k="111" />
    <hkern g1="Y,Yacute,Ydieresis"
	g2="period"
	k="111" />
    <hkern g1="Y,Yacute,Ydieresis"
	g2="d,dotlessi"
	k="92" />
    <hkern g1="Y,Yacute,Ydieresis"
	g2="q"
	k="74" />
    <hkern g1="Y,Yacute,Ydieresis"
	g2="hyphen"
	k="111" />
    <hkern g1="Y,Yacute,Ydieresis"
	g2="a,agrave,aacute,acircumflex,atilde,adieresis,aring,ae"
	k="111" />
    <hkern g1="Y,Yacute,Ydieresis"
	g2="r"
	k="111" />
    <hkern g1="Y,Yacute,Ydieresis"
	g2="u,ugrave,uacute,ucircumflex,udieresis"
	k="111" />
    <hkern g1="Y,Yacute,Ydieresis"
	g2="semicolon"
	k="111" />
    <hkern g1="Y,Yacute,Ydieresis"
	g2="p"
	k="129" />
    <hkern g1="Y,Yacute,Ydieresis"
	g2="t"
	k="111" />
    <hkern g1="quoteright"
	g2="V"
	k="74" />
    <hkern g1="quoteright"
	g2="w"
	k="111" />
    <hkern g1="quoteright"
	g2="W"
	k="111" />
    <hkern g1="quoteright"
	g2="y,yacute,ydieresis"
	k="111" />
    <hkern g1="quoteright"
	g2="quoteright"
	k="111" />
    <hkern g1="quoteright"
	g2="A,Agrave,Aacute,Acircumflex,Atilde,Adieresis,Aring,AE"
	k="111" />
    <hkern g1="quoteright"
	g2="period"
	k="129" />
    <hkern g1="quoteright"
	g2="c,ccedilla"
	k="111" />
    <hkern g1="quoteright"
	g2="d,dotlessi"
	k="92" />
    <hkern g1="quoteright"
	g2="e,egrave,eacute,ecircumflex,edieresis"
	k="111" />
    <hkern g1="quoteright"
	g2="n,ntilde"
	k="92" />
    <hkern g1="quoteright"
	g2="o,ograve,oacute,ocircumflex,otilde,odieresis,oslash,oe"
	k="87" />
    <hkern g1="quoteright"
	g2="q"
	k="87" />
  </font>
</defs></svg>
